#
# @package phosim
# @brief phosim data file
#
# @brief Created by:
# @author John R. Peterson (Purdue)
#
# @brief Modified by:
#
#  @warning Please treat results using PhoSim with caution as this project is in active development.
#  @warning This material is copyrighted and subject to a open source license with restrictions.  See COPYING for details.
#
optics u    0.2    1.2 0.5   27358.9395 1 1 0
primary mirror    3200.0000      0.0000    100.0000     12.5000 -1 0 0 0 0 0 0 0 0 0 0 0 0 0 0 0 protected_al air none
filter  lens       -92.0000   1413.6000     12.5000      0.0000 -1 0 0 0 0 0 0 0 0 0 0 0 0 0 0 0 sdss_u sio2 none
filter  lens       -90.1600      4.0000     12.5000      0.0000 -1 0 0 0 0 0 0 0 0 0 0 0 0 0 0 0 lens_ar air none
image   det          0.0000    182.4000     24.0000      0.0000  0 0 0 0 0 0 0 0 0 0 0 0 0 0 0 0 detector_ar air none
