#
# @package phosim
# @brief phosim data file
#
# @brief Created by:
# @author John R. Peterson (Purdue)
#
# @brief Modified by:
#
#  @warning Please treat results using PhoSim with caution as this project is in active development.
#  @warning This material is copyrighted and subject to a open source license with restrictions.  See COPYING for details.
#
optics h    0.8    6.0 0.5   21887.1504 1 1 0
primary mirror    2560.0000      0.0000     40.0000      5.0000 -1 0 0 0 0 0 0 0 0 0 0 0 0 0 0 0 protected_al air none
filter  lens       -73.6000   1126.4000      5.0000      0.0000 -1 0 0 0 0 0 0 0 0 0 0 0 0 0 0 0 mko_h sio2 none
filter  lens       -72.1280      3.2000      5.0000      0.0000 -1 0 0 0 0 0 0 0 0 0 0 0 0 0 0 0 lens_ar air none
image   det          0.0000    150.4000     19.2000      0.0000  0 0 0 0 0 0 0 0 0 0 0 0 0 0 0 0 detector_ar air none
