optics u	0.30  1.20  0.36  180000.0 1 1 0
M1  mirror  11040.0  0.0      1200.0  300.0  -1.0022985	 0.0 0.0 0.0 0.0 0.0 0.0 0.0 0.0 0.0 0.0 0.0 0.0 0.0 0.0 0.0 m1_protAl_Ideal.txt vacuum  none
M2  mirror  1358.0   4906.071 197.5   0.0	 -1.4960     0.0 0.0 0.0 0.0 0.0 0.0 0.0 0.0 0.0 0.0 0.0 0.0 0.0 0.0 0.0 m1_protAl_Ideal.txt vacuum  none    

D	fakeDet	0.0     -6406.071 50.0    0.0	  0.0        0.0 0.0 0.0 0.0 0.0 0.0 0.0 0.0 0.0 0.0 0.0 0.0 0.0 0.0 0.0 detectorar.txt      vacuum  none
