0.00 1.013E+03 288.2 2.548E+19 7.75E+03 2.66E-02 3.20E-01 1.50E-01 1.70E+00
1.00 8.986E+02 281.7 2.313E+19 6.07E+03 2.93E-02 3.20E-01 1.45E-01 1.70E+00
2.00 7.950E+02 275.2 2.094E+19 4.63E+03 3.24E-02 3.20E-01 1.40E-01 1.70E+00
3.00 7.012E+02 266.7 1.891E+19 3.18E+03 3.32E-02 3.20E-01 1.35E-01 1.70E+00
4.00 6.166E+02 262.2 1.704E+19 2.16E+03 3.39E-02 3.20E-01 1.31E-01 1.70E+00
5.00 5.405E+02 255.7 1.532E+19 1.40E+03 3.77E-02 3.20E-01 1.30E-01 1.70E+00
6.00 4.722E+02 249.2 1.373E+19 9.25E+02 4.11E-02 3.20E-01 1.29E-01 1.70E+00
7.00 4.111E+02 242.7 1.228E+19 5.72E+02 5.01E-02 3.20E-01 1.25E-01 1.70E+00
8.00 3.565E+02 236.2 1.094E+19 3.67E+02 5.97E-02 3.20E-01 1.19E-01 1.70E+00
9.00 3.060E+02 229.7 9.719E+18 1.58E+02 9.17E-02 3.20E-01 1.09E-01 1.69E+00
10.00 2.650E+02 223.3 8.602E+18 7.00E+01 1.31E-01 3.18E-01 9.96E-02 1.69E+00
11.00 2.270E+02 216.8 7.589E+18 3.61E+01 2.15E-01 3.14E-01 8.96E-02 1.68E+00
12.00 1.940E+02 216.7 6.489E+18 1.91E+01 3.10E-01 3.10E-01 7.81E-02 1.66E+00
13.00 1.658E+02 216.7 5.546E+18 1.09E+01 3.85E-01 3.05E-01 6.37E-02 1.65E+00
14.00 1.417E+02 216.7 4.739E+18 5.93E+00 5.03E-01 3.00E-01 5.03E-02 1.63E+00
15.00 1.211E+02 216.7 4.050E+18 5.00E+00 6.51E-01 2.94E-01 3.94E-02 1.61E+00
16.00 1.035E+02 216.7 3.462E+18 3.95E+00 8.70E-01 2.88E-01 3.07E-02 1.58E+00
17.00 8.850E+01 216.7 2.9601+18 3.85E+00 1.19E+00 2.78E-01 2.49E-02 1.55E+00
18.00 7.565E+01 216.7 2.530E+18 3.83E+00 1.59E+00 2.67E-01 1.97E-02 1.52E+00
19.00 6.467E+01 216.7 2.163E+18 3.85E+00 2.03E+00 2.53E-01 1.55E-02 1.48E+00
20.00 5.529E+01 216.7 1.849E+18 3.90E+00 2.68E+00 2.37E-01 1.33E-02 1.42E+00
21.00 4.729E+01 217.6 1.575E+18 3.98E+00 3.03E+00 2.19E-01 1.23E-02 1.36E+00
22.00 4.047E+01 218.6 1.342E+18 4.07E+00 3.65E+00 2.05E-01 1.23E-02 1.27E+00
23.00 3.467E+01 219.6 1.144E+18 4.20E+00 4.17E+00 1.97E-01 1.31E-02 1.19E+00
24.00 2.972E+01 220.6 9.765E+17 4.30E+00 4.63E+00 1.88E-01 1.40E-02 1.12E+00
25.00 2.549E+01 221.6 8.337E+17 4.43E+00 5.12E+00 1.76E-01 1.50E-02 1.06E+00
27.50 1.743E+01 224.0 5.640E+17 4.58E+00 5.80E+00 1.59E-Oi 1.60E-02 9.87E-01
30.00 1.197E+01 226.5 3.830E+17 4.73E+00 6.55E+00 1.42E-01 1.71E-02 9.14E-01
32.50 8.010E+00 230.0 2.524E+17 4.83E+00 7.37E+00 1.17E-01 1.85E-02 8.30E-01
35.00 5.746E+00 236.5 1.761E+17 4.90E+00 7.84E+00 9.28E-02 2.01E-02 7.46E-01
37.50 4.150E+00 242.9 1.238E+17 4.95E+00 7.80E+00 6.69E-02 2.22E-02 6.62E-01
40.00 2.871E+00 250.4 8.310E+16 5.031+00 7.30E+00 4.51E-02 2.50E-02 5.64E-01
42.50 2.060E+00 257.3 5.803E+16 5.15E+00 6.20E+00 2.75E-02 2.82E-02 4.61E-01
45.00 1.491E+00 264.2 4.090E+16 5.23E+00 5.25E+00 1.59E-02 3.24E-02 3.63E-01
47.50 1.090E+00 270.6 2.920E+16 5.251+00 4.10E+00 9.38E-03 3.72E-02 2.77E-01
50.00 7.978E-01 270.7 2.136E+16 5.23E+00 3.l0E+00 4.75E-03 4.60E-02 2.10E-01
55.00 4.250E-01 260.8 1.181E+16 5.10E+00 1.80E+00 3.00E-03 6.54E-02 1.65E-01
60.00 2.190E-01 247.0 6.426E+15 4.75E+00 1.10E+00 2.07E-03 1.07E-01 1.50E-01
65.00 1.090E-01 233.3 3.386E+15 4.20E+00 7.00E-01 1.51E-03 1.86E-01 1.50E-01
70.00 5.220E-02 219.6 1.723E+15 3.50E+00 3.00E-01 1.15E-03 3.06E-01 1.50E-01
75.00 2.400E-02 208.4 8.347E+14 2.83E+00 2.50E-01 8.89E-04 6.38E-01 1.50E-01
80.00 1.050E-02 198.6 3.832E+14 2.05E+00 3.00E-01 7.06E-04 1.50E+00 1.50E-01
85.00 4.460E-03 188.9 1.711E+14 1.33E+00 5.00E-01 5.72E-04 3.24E+00 1.50E-01
90.00 1.840E-03 186.9 7.136E+13 8.50E-01 7.00E-01 4.71E-04 5.84E+00 1.40E-01
95.00 7.600E-04 188.4 2.924E+13 5.40E-01 7.00E-01 3.93E-04 1.01E+01 1.30E-01
100.00 3.200E-04 195.1 1.189E+13 4.00E-01 4.00E-01 3.32E-04 1.69E+01 1.20E-01
105.00 1.450E-04 208.8 5.0331+12 3.40E-01 2.00E-01 2.84E-04 2.47E+01 1.10E-01
110.00 7.100E-05 240.0 2.144E+12 2.80E-01 5.00E-02 2.44E-04 3.36E+01 9.50E-02
115.00 4.010E-05 300.0 9.688E+11 2.40E-01 5.00E-03 2.12E-04 4.15E+01 6.00E-02
120.00 2.540E-05 360.0 5.114E+11 2.00E-01 5.00E-04 1.85E-04 5.00E+01 3.00E-02
