#
# @package phosim
# @brief phosim data file
#
# @brief Created by:
# @author John R. Peterson (Purdue)
#
# @brief Modified by:
#
#  @warning Please treat results using PhoSim with caution as this project is in active development.
#  @warning This material is copyrighted and subject to a open source license with restrictions.  See COPYING for details.
#
optics r    0.2    1.2 0.5  136794.7031 1 1 0
primary mirror   16000.0000      0.0000    500.0000     62.5000 -1 0 0 0 0 0 0 0 0 0 0 0 0 0 0 0 protected_al air none
filter  lens      -460.0000   7056.0000     62.5000      0.0000 -1 0 0 0 0 0 0 0 0 0 0 0 0 0 0 0 sdss_r sio2 none
filter  lens      -450.8000     20.0000     62.5000      0.0000 -1 0 0 0 0 0 0 0 0 0 0 0 0 0 0 0 lens_ar air none
image   det          0.0000    924.0000    120.0000      0.0000  0 0 0 0 0 0 0 0 0 0 0 0 0 0 0 0 detector_ar air none
