optics w500	 0.498  0.505   0.500 180000.0 1 1 0
L1  lens     0.0    0.0   100.0  0.0  0.0  0.0  0.0 0.0     0.0   0.0    0.0 0.0   0.0  0.0 0.0 0.0 0.0 0.0 0.0 0.0 lenses.txt silica_dispersion.txt none
L1E lens     0.0   -1.0   100.0  0.0  0.0  0.0  0.0 0.0     0.0   0.0    0.0 0.0   0.0  0.0 0.0 0.0 0.0 0.0 0.0 0.0 lenses.txt     air none
G   grating  0.0   -1.0   100.0  0.0  0.0  7.09 599 3.33333 0.475 0.525 -2.0 2.0 -45.0 45.0 0.0 0.0 0.0 0.0 0.0 0.0 filter_500.txt air none less
D	det      0.0   -1.0   400.0  0.0  0.0  0.0  0.0 0.0     0.0   0.0    0.0 0.0   0.0  0.0 0.0 0.0 0.0 0.0 0.0 0.0 detectorar.txt air none
