0.50   1.48080546267
0.51   1.48033435254
0.52   1.4798908957
0.53   1.47947290113
0.54   1.47907839167
0.55   1.47870557924
0.56   1.47835284335
0.57   1.47801871246
0.58   1.47770184773
0.59   1.4774010288
0.60   1.47711514132
0.61   1.47684316603
0.62   1.47658416911
0.63   1.47633729369
0.64   1.47610175226
0.65   1.47587682008
0.66   1.47566182915
0.67   1.47545616298
0.68   1.47525925188
0.69   1.47507056868
0.70   1.474889625
0.71   1.47471596787
0.72   1.47454917661
0.73   1.47438886018
0.74   1.47423465461
0.75   1.47408622085
0.76   1.47394324269
0.77   1.47380542493
0.78   1.47367249176
0.79   1.47354418518
0.80   1.47342026372
0.81   1.47330050108
0.82   1.47318468507
0.83   1.47307261654
0.84   1.47296410841
0.85   1.47285898483
0.86   1.47275708034
0.87   1.47265823918
0.88   1.47256231459
0.89   1.47246916817
0.90   1.47237866938
0.91   1.47229069493
0.92   1.47220512836
0.93   1.47212185954
0.94   1.47204078431
0.95   1.47196180405
0.96   1.47188482538
0.97   1.47180975976
0.98   1.47173652325
0.99   1.47166503621
1.00   1.47159522302
1.01   1.47152701185
1.02   1.47146033444
1.03   1.47139512588
1.04   1.47133132441
1.05   1.47126887127
1.06   1.47120771046
1.07   1.47114778866
1.08   1.47108905503
1.09   1.47103146108
1.10   1.47097496056
1.11   1.47091950932
1.12   1.47086506518
1.13   1.47081158787
1.14   1.47075903889
1.15   1.47070738144
1.16   1.47065658029
1.17   1.47060660176
1.18   1.4705574136
1.19   1.47050898491
1.20   1.47046128611
1.21   1.47041428883
1.22   1.4703679659
1.23   1.47032229123
1.24   1.4702772398
1.25   1.47023278762
1.26   1.47018891162
1.27   1.47014558968
1.28   1.47010280053
1.29   1.47006052373
1.30   1.47001873962
1.31   1.46997742933
1.32   1.46993657468
1.33   1.46989615818
1.34   1.469856163
1.35   1.46981657295
1.36   1.4697773724
1.37   1.46973854634
1.38   1.46970008027
1.39   1.46966196024
1.40   1.46962417278
1.41   1.46958670491
1.42   1.46954954411
1.43   1.4695126783
1.44   1.4694760958
1.45   1.46943978537
1.46   1.46940373613
1.47   1.46936793758
1.48   1.46933237958
1.49   1.46929705231
1.50   1.46926194631
1.51   1.46922705242
1.52   1.46919236177
1.53   1.46915786579
1.54   1.4691235562
1.55   1.46908942497
1.56   1.46905546434
1.57   1.46902166678
1.58   1.46898802503
1.59   1.46895453203
1.60   1.46892118095
1.61   1.46888796518
1.62   1.4688548783
1.63   1.4688219141
1.64   1.46878906654
1.65   1.4687563298
1.66   1.46872369819
1.67   1.46869116623
1.68   1.46865872857
1.69   1.46862638004
1.70   1.46859411562
1.71   1.46856193043
1.72   1.46852981974
1.73   1.46849777893
1.74   1.46846580355
1.75   1.46843388926
1.76   1.46840203184
1.77   1.46837022719
1.78   1.46833847132
1.79   1.46830676038
1.80   1.46827509058
1.81   1.46824345828
1.82   1.4682118599
1.83   1.46818029199
1.84   1.46814875117
1.85   1.46811723417
1.86   1.4680857378
1.87   1.46805425893
1.88   1.46802279457
1.89   1.46799134174
1.90   1.4679598976
1.91   1.46792845934
1.92   1.46789702425
1.93   1.46786558967
1.94   1.46783415303
1.95   1.46780271179
1.96   1.46777126352
1.97   1.46773980581
1.98   1.46770833635
1.99   1.46767685284
2.00   1.46764535308
2.01   1.46761383491
2.02   1.4675822962
2.03   1.46755073492
2.04   1.46751914904
2.05   1.4674875366
2.06   1.46745589571
2.07   1.46742422448
2.08   1.46739252109
2.09   1.46736078377
2.10   1.46732901078
2.11   1.46729720042
2.12   1.46726535103
2.13   1.467233461
2.14   1.46720152873
2.15   1.4671695527
2.16   1.46713753138
2.17   1.4671054633
2.18   1.46707334701
2.19   1.46704118112
2.20   1.46700896423
2.21   1.466976695
2.22   1.46694437211
2.23   1.46691199427
2.24   1.46687956022
2.25   1.46684706873
2.26   1.46681451858
2.27   1.4667819086
2.28   1.46674923764
2.29   1.46671650456
2.30   1.46668370825
2.31   1.46665084763
2.32   1.46661792164
2.33   1.46658492924
2.34   1.46655186941
2.35   1.46651874116
2.36   1.46648554352
2.37   1.46645227552
2.38   1.46641893623
2.39   1.46638552473
2.40   1.46635204013
2.41   1.46631848155
2.42   1.46628484811
2.43   1.46625113899
2.44   1.46621735334
2.45   1.46618349035
2.46   1.46614954924
2.47   1.46611552921
2.48   1.4660814295
2.49   1.46604724936
2.50   1.46601298806
2.51   1.46597864487
2.52   1.46594421907
2.53   1.46590970999
2.54   1.46587511693
2.55   1.46584043922
2.56   1.46580567621
2.57   1.46577082726
2.58   1.46573589172
2.59   1.46570086899
2.60   1.46566575844
2.61   1.46563055948
2.62   1.46559527152
2.63   1.46555989398
2.64   1.4655244263
2.65   1.46548886793
2.66   1.4654532183
2.67   1.46541747689
2.68   1.46538164316
2.69   1.46534571661
2.70   1.46530969671
2.71   1.46527358297
2.72   1.46523737489
2.73   1.46520107199
2.74   1.4651646738
2.75   1.46512817985
2.76   1.46509158967
2.77   1.46505490281
2.78   1.46501811884
2.79   1.46498123731
2.80   1.46494425779
2.81   1.46490717987
2.82   1.46487000311
2.83   1.46483272712
2.84   1.4647953515
2.85   1.46475787583
2.86   1.46472029975
2.87   1.46468262285
2.88   1.46464484477
2.89   1.46460696513
2.90   1.46456898356
2.91   1.46453089971
2.92   1.46449271322
2.93   1.46445442375
2.94   1.46441603094
2.95   1.46437753445
2.96   1.46433893397
2.97   1.46430022915
2.98   1.46426141967
2.99   1.46422250522
3.00   1.46418348547
3.01   1.46414436013
3.02   1.46410512888
3.03   1.46406579142
3.04   1.46402634747
3.05   1.46398679671
3.06   1.46394713888
3.07   1.46390737368
3.08   1.46386750083
3.09   1.46382752006
3.10   1.4637874311
3.11   1.46374723368
3.12   1.46370692753
3.13   1.46366651239
3.14   1.463625988
3.15   1.46358535412
3.16   1.46354461048
3.17   1.46350375685
3.18   1.46346279298
3.19   1.46342171863
3.20   1.46338053355
3.21   1.46333923752
3.22   1.46329783031
3.23   1.46325631168
3.24   1.46321468141
3.25   1.46317293928
3.26   1.46313108507
3.27   1.46308911856
3.28   1.46304703953
3.29   1.46300484777
3.30   1.46296254309
3.31   1.46292012525
3.32   1.46287759408
3.33   1.46283494935
3.34   1.46279219088
3.35   1.46274931846
3.36   1.4627063319
3.37   1.46266323101
3.38   1.4626200156
3.39   1.46257668548
3.40   1.46253324046
3.41   1.46248968037
3.42   1.46244600501
3.43   1.46240221421
3.44   1.46235830779
3.45   1.46231428558
3.46   1.4622701474
3.47   1.46222589308
3.48   1.46218152245
3.49   1.46213703534
3.50   1.46209243159
3.51   1.46204771102
3.52   1.46200287349
3.53   1.46195791882
3.54   1.46191284685
3.55   1.46186765744
3.56   1.46182235041
3.57   1.46177692563
3.58   1.46173138292
3.59   1.46168572215
3.60   1.46163994316
3.61   1.46159404581
3.62   1.46154802994
3.63   1.46150189541
3.64   1.46145564207
3.65   1.46140926978
3.66   1.46136277841
3.67   1.4613161678
3.68   1.46126943782
3.69   1.46122258834
3.70   1.46117561921
3.71   1.46112853029
3.72   1.46108132147
3.73   1.46103399259
3.74   1.46098654353
3.75   1.46093897416
3.76   1.46089128435
3.77   1.46084347397
3.78   1.46079554289
3.79   1.46074749099
3.80   1.46069931813
3.81   1.4606510242
3.82   1.46060260908
3.83   1.46055407263
3.84   1.46050541474
3.85   1.46045663528
3.86   1.46040773414
3.87   1.46035871121
3.88   1.46030956635
3.89   1.46026029945
3.90   1.4602109104
3.91   1.46016139909
3.92   1.46011176539
3.93   1.46006200919
3.94   1.46001213039
3.95   1.45996212886
3.96   1.45991200451
3.97   1.45986175721
3.98   1.45981138685
3.99   1.45976089334
4.00   1.45971027656
4.01   1.4596595364
4.02   1.45960867275
4.03   1.45955768552
4.04   1.45950657459
4.05   1.45945533986
4.06   1.45940398122
4.07   1.45935249858
4.08   1.45930089183
4.09   1.45924916086
4.10   1.45919730558
4.11   1.45914532588
4.12   1.45909322167
4.13   1.45904099284
4.14   1.4589886393
4.15   1.45893616094
4.16   1.45888355767
4.17   1.45883082939
4.18   1.45877797601
4.19   1.45872499742
4.20   1.45867189353
4.21   1.45861866425
4.22   1.45856530947
4.23   1.45851182912
4.24   1.45845822308
4.25   1.45840449127
4.26   1.4583506336
4.27   1.45829664997
4.28   1.45824254029
4.29   1.45818830446
4.30   1.45813394241
4.31   1.45807945402
4.32   1.45802483923
4.33   1.45797009792
4.34   1.45791523003
4.35   1.45786023544
4.36   1.45780511409
4.37   1.45774986587
4.38   1.4576944907
4.39   1.4576389885
4.40   1.45758335916
4.41   1.45752760262
4.42   1.45747171877
4.43   1.45741570754
4.44   1.45735956884
4.45   1.45730330257
4.46   1.45724690867
4.47   1.45719038703
4.48   1.45713373758
4.49   1.45707696023
4.50   1.4570200549
4.51   1.4569630215
4.52   1.45690585995
4.53   1.45684857017
4.54   1.45679115206
4.55   1.45673360556
4.56   1.45667593057
4.57   1.45661812702
4.58   1.45656019482
4.59   1.45650213389
4.60   1.45644394415
4.61   1.45638562552
4.62   1.45632717791
4.63   1.45626860125
4.64   1.45620989545
4.65   1.45615106043
4.66   1.45609209612
4.67   1.45603300243
4.68   1.45597377929
4.69   1.4559144266
4.70   1.4558549443
4.71   1.45579533231
4.72   1.45573559054
4.73   1.45567571892
4.74   1.45561571736
4.75   1.4555555858
4.76   1.45549532414
4.77   1.45543493232
4.78   1.45537441025
4.79   1.45531375786
4.80   1.45525297506
4.81   1.45519206179
4.82   1.45513101796
4.83   1.4550698435
4.84   1.45500853832
4.85   1.45494710236
4.86   1.45488553553
4.87   1.45482383776
4.88   1.45476200897
4.89   1.45470004908
4.90   1.45463795802
4.91   1.45457573572
4.92   1.45451338209
4.93   1.45445089706
4.94   1.45438828056
4.95   1.4543255325
4.96   1.45426265282
4.97   1.45419964143
4.98   1.45413649826
4.99   1.45407322324
5.00   1.45400981629
5.01   1.45394627733
5.02   1.45388260629
5.03   1.4538188031
5.04   1.45375486768
5.05   1.45369079995
5.06   1.45362659984
5.07   1.45356226728
5.08   1.45349780219
5.09   1.45343320449
5.10   1.45336847411
5.11   1.45330361098
5.12   1.45323861503
5.13   1.45317348617
5.14   1.45310822433
5.15   1.45304282945
5.16   1.45297730143
5.17   1.45291164022
5.18   1.45284584574
5.19   1.4527799179
5.20   1.45271385665
5.21   1.4526476619
5.22   1.45258133358
5.23   1.45251487162
5.24   1.45244827594
5.25   1.45238154647
5.26   1.45231468313
5.27   1.45224768586
5.28   1.45218055457
5.29   1.45211328919
5.30   1.45204588966
5.31   1.45197835589
5.32   1.45191068782
5.33   1.45184288536
5.34   1.45177494845
5.35   1.45170687701
5.36   1.45163867097
5.37   1.45157033025
5.38   1.45150185478
5.39   1.45143324449
5.40   1.45136449931
5.41   1.45129561915
5.42   1.45122660395
5.43   1.45115745364
5.44   1.45108816813
5.45   1.45101874736
5.46   1.45094919125
5.47   1.45087949973
5.48   1.45080967272
5.49   1.45073971015
5.50   1.45066961196
5.51   1.45059937805
5.52   1.45052900837
5.53   1.45045850283
5.54   1.45038786137
5.55   1.45031708391
5.56   1.45024617037
5.57   1.45017512068
5.58   1.45010393477
5.59   1.45003261257
5.60   1.44996115399