#
# @package phosim
# @brief phosim data file
#
# @brief Created by:
# @author John R. Peterson (Purdue)
#
# @brief Modified by:
#
#  @warning Please treat results using PhoSim with caution as this project is in active development.
#  @warning This material is copyrighted and subject to a open source license with restrictions.  See COPYING for details.
#
optics j    0.8    6.0 0.5  410384.0938 1 1 0
primary mirror   48000.0000      0.0000    500.0000     62.5000 -1 0 0 0 0 0 0 0 0 0 0 0 0 0 0 0 protected_al air none
filter  lens     -1380.0001  21120.0000     62.5000      0.0000 -1 0 0 0 0 0 0 0 0 0 0 0 0 0 0 0 mko_j sio2 none
filter  lens     -1352.4001     60.0000     62.5000      0.0000 -1 0 0 0 0 0 0 0 0 0 0 0 0 0 0 0 lens_ar air none
image   det          0.0000   2820.0000    360.0000      0.0000  0 0 0 0 0 0 0 0 0 0 0 0 0 0 0 0 detector_ar air none
