#
# @package phosim
# @brief phosim data file
#
# @brief Created by:
# @author John R. Peterson (Purdue)
#
# @brief Modified by:
#
#  @warning Please treat results using PhoSim with caution as this project is in active development.
#  @warning This material is copyrighted and subject to a open source license with restrictions.  See COPYING for details.
#
optics g    0.2    1.2 0.5  164153.6406 1 1 0
primary mirror   19200.0000      0.0000    200.0000     25.0000 -1 0 0 0 0 0 0 0 0 0 0 0 0 0 0 0 protected_al air none
filter  lens      -552.0001   8476.7998     25.0000      0.0000 -1 0 0 0 0 0 0 0 0 0 0 0 0 0 0 0 sdss_g sio2 none
filter  lens      -540.9601     24.0000     25.0000      0.0000 -1 0 0 0 0 0 0 0 0 0 0 0 0 0 0 0 lens_ar air none
image   det          0.0000   1099.2000    144.0000      0.0000  0 0 0 0 0 0 0 0 0 0 0 0 0 0 0 0 detector_ar air none
