#0   u	0.30  1.20  0.36  180000.0
#1   g	0.30  1.20  0.48  180000.0
#2   r	0.30  1.20  0.62  180000.0
#3   i	0.30  1.20  0.75  180000.0
#4   z	0.30  1.20  0.87  180000.0
#5   y	0.30  1.20  0.97  180000.0
0   u	0.30  1.20  0.36  20946.9458
1   g	0.30  1.20  0.48  20946.9458
2   r	0.30  1.20  0.62  20946.9458
3   i	0.30  1.20  0.75  20946.9458
4   z	0.30  1.20  0.87  20946.9458
5   y	0.30  1.20  0.97  20946.9458
