0 2680 2920 0.0 0.0 0.0 0.0 2.2 2.7 3.3 0.30
2920 3160 3410 0.2 0.4 0.7 0.86 0.0 0.0 0.0 0.0
3410 3660 4160 0.03 0.1 0.2 1.16 0.0 0.0 0.0 0.0
4160 4660 5660 0.02 0.1 0.4 1.99 0.0 0.0 0.0 0.0
5660 6660 8660 0.2 0.4 0.6 0.70 0.0 0.0 0.0 0.0
8660 10660 14660 0.15 0.2 0.3 0.56 0.0 0.0 0.0 0.0
14660 18660 22660 0.25 0.3 0.3 0.07 0.0 0.0 0.0 0.0
mean 38
median 32
cloudmean1 0.05
cloudsigma1 0.18
cloudmean2 0.11
cloudsigma2 1.14
cloudvariationscale 10.0
domeseeingmean 0.05
domeseeingmedian 0.05
