OTA33 -47104  -47104   12.0 4039 4015 silicon CCD frame 30 30.0 Group0  0.0  0.0  0.0  0.0  0.0  0.0 sensor.txt    0.0
OTA34 -47104  2048     12.0 4039 4015 silicon CCD frame 30 30.0 Group0  0.0  0.0  0.0  0.0  0.0  0.0 sensor.txt    0.0
OTA43 2048    -47104   12.0 4039 4015 silicon CCD frame 30 30.0 Group0  0.0  0.0  0.0  0.0  0.0  0.0 sensor.txt    0.0
OTA44 2048    2048     12.0 4039 4015 silicon CCD frame 30 30.0 Group0  0.0  0.0  0.0  0.0  0.0  0.0 sensor.txt    0.0
OTA32 -47104  -96256   12.0 4039 4015 silicon CCD frame 30 30.0 Group0  0.0  0.0  0.0  0.0  0.0  0.0 sensor.txt    0.0
OTA23 -96256  -47104   12.0 4039 4015 silicon CCD frame 30 30.0 Group0  0.0  0.0  0.0  0.0  0.0  0.0 sensor.txt    0.0
OTA24 -96256  2048     12.0 4039 4015 silicon CCD frame 30 30.0 Group0  0.0  0.0  0.0  0.0  0.0  0.0 sensor.txt    0.0
OTA42 2048    -96256   12.0 4039 4015 silicon CCD frame 30 30.0 Group0  0.0  0.0  0.0  0.0  0.0  0.0 sensor.txt    0.0
OTA35 -47104  51200    12.0 4039 4015 silicon CCD frame 30 30.0 Group0  0.0  0.0  0.0  0.0  0.0  0.0 sensor.txt    0.0
OTA53 51200  -47104    12.0 4039 4015 silicon CCD frame 30 30.0 Group0  0.0  0.0  0.0  0.0  0.0  0.0 sensor.txt    0.0
OTA45 2048    51200    12.0 4039 4015 silicon CCD frame 30 30.0 Group0  0.0  0.0  0.0  0.0  0.0  0.0 sensor.txt    0.0
OTA54 51200   2048     12.0 4039 4015 silicon CCD frame 30 30.0 Group0  0.0  0.0  0.0  0.0  0.0  0.0 sensor.txt    0.0
OTA22 -96256  -96256   12.0 4039 4015 silicon CCD frame 30 30.0 Group0  0.0  0.0  0.0  0.0  0.0  0.0 sensor.txt    0.0
OTA25 -96256  51200    12.0 4039 4015 silicon CCD frame 30 30.0 Group0  0.0  0.0  0.0  0.0  0.0  0.0 sensor.txt    0.0
OTA52 51200   -96256   12.0 4039 4015 silicon CCD frame 30 30.0 Group0  0.0  0.0  0.0  0.0  0.0  0.0 sensor.txt    0.0
OTA55 51200   51200    12.0 4039 4015 silicon CCD frame 30 30.0 Group0  0.0  0.0  0.0  0.0  0.0  0.0 sensor.txt    0.0
OTA31 -47104  -145408  12.0 4039 4015 silicon CCD frame 30 30.0 Group0  0.0  0.0  0.0  0.0  0.0  0.0 sensor.txt    0.0
OTA13 -145408 -47104   12.0 4039 4015 silicon CCD frame 30 30.0 Group0  0.0  0.0  0.0  0.0  0.0  0.0 sensor.txt    0.0
OTA41 2048    -145408  12.0 4039 4015 silicon CCD frame 30 30.0 Group0  0.0  0.0  0.0  0.0  0.0  0.0 sensor.txt    0.0
OTA14 -145408 2048     12.0 4039 4015 silicon CCD frame 30 30.0 Group0  0.0  0.0  0.0  0.0  0.0  0.0 sensor.txt    0.0
OTA36 -47104  100352   12.0 4039 4015 silicon CCD frame 30 30.0 Group0  0.0  0.0  0.0  0.0  0.0  0.0 sensor.txt    0.0
OTA46 2048    100352   12.0 4039 4015 silicon CCD frame 30 30.0 Group0  0.0  0.0  0.0  0.0  0.0  0.0 sensor.txt    0.0
OTA21 -96256  -145408  12.0 4039 4015 silicon CCD frame 30 30.0 Group0  0.0  0.0  0.0  0.0  0.0  0.0 sensor.txt    0.0
OTA12 -145408 -96256   12.0 4039 4015 silicon CCD frame 30 30.0 Group0  0.0  0.0  0.0  0.0  0.0  0.0 sensor.txt    0.0
OTA15 -145408 51200    12.0 4039 4015 silicon CCD frame 30 30.0 Group0  0.0  0.0  0.0  0.0  0.0  0.0 sensor.txt    0.0
OTA51 51200   -145408  12.0 4039 4015 silicon CCD frame 30 30.0 Group0  0.0  0.0  0.0  0.0  0.0  0.0 sensor.txt    0.0
OTA26 -96256  100352   12.0 4039 4015 silicon CCD frame 30 30.0 Group0  0.0  0.0  0.0  0.0  0.0  0.0 sensor.txt    0.0
OTA56 51200   100352   12.0 4039 4015 silicon CCD frame 30 30.0 Group0  0.0  0.0  0.0  0.0  0.0  0.0 sensor.txt    0.0
OTA11 -145408 -145408  12.0 4039 4015 silicon CCD frame 30 30.0 Group0  0.0  0.0  0.0  0.0  0.0  0.0 sensor.txt    0.0
OTA16 -145408 100352   12.0 4039 4015 silicon CCD frame 30 30.0 Group0  0.0  0.0  0.0  0.0  0.0  0.0 sensor.txt    0.0
