0.3   1.48782208931
0.301   1.4875413524
0.302   1.48726382277
0.303   1.48698944942
0.304   1.48671818239
0.305   1.48644997275
0.306   1.48618477255
0.307   1.4859225348
0.308   1.48566321346
0.309   1.48540676341
0.31   1.48515314042
0.311   1.48490230113
0.312   1.48465420305
0.313   1.48440880449
0.314   1.48416606462
0.315   1.48392594335
0.316   1.4836884014
0.317   1.48345340023
0.318   1.48322090204
0.319   1.48299086975
0.32   1.48276326698
0.321   1.48253805806
0.322   1.48231520795
0.323   1.48209468229
0.324   1.48187644737
0.325   1.48166047008
0.326   1.48144671794
0.327   1.48123515906
0.328   1.48102576213
0.329   1.48081849643
0.33   1.48061333178
0.331   1.48041023854
0.332   1.48020918763
0.333   1.48001015047
0.334   1.47981309899
0.335   1.47961800563
0.336   1.47942484332
0.337   1.47923358546
0.338   1.47904420591
0.339   1.478856679
0.34   1.4786709795
0.341   1.47848708263
0.342   1.47830496403
0.343   1.47812459975
0.344   1.47794596627
0.345   1.47776904046
0.346   1.47759379958
0.347   1.47742022128
0.348   1.4772482836
0.349   1.47707796494
0.35   1.47690924404
0.351   1.47674210003
0.352   1.47657651237
0.353   1.47641246086
0.354   1.47624992564
0.355   1.47608888717
0.356   1.47592932623
0.357   1.47577122392
0.358   1.47561456165
0.359   1.4754593211
0.36   1.4753054843
0.361   1.47515303352
0.362   1.47500195134
0.363   1.47485222061
0.364   1.47470382445
0.365   1.47455674626
0.366   1.4744109697
0.367   1.47426647866
0.368   1.47412325732
0.369   1.47398129008
0.37   1.47384056161
0.371   1.47370105679
0.372   1.47356276074
0.373   1.47342565882
0.374   1.47328973662
0.375   1.47315497993
0.376   1.47302137476
0.377   1.47288890736
0.378   1.47275756414
0.379   1.47262733177
0.38   1.47249819707
0.381   1.4723701471
0.382   1.47224316908
0.383   1.47211725044
0.384   1.4719923788
0.385   1.47186854193
0.386   1.47174572783
0.387   1.47162392463
0.388   1.47150312067
0.389   1.47138330444
0.39   1.4712644646
0.391   1.47114658998
0.392   1.47102966957
0.393   1.47091369251
0.394   1.4707986481
0.395   1.47068452581
0.396   1.47057131524
0.397   1.47045900614
0.398   1.47034758842
0.399   1.47023705211
0.4   1.4701273874
0.401   1.47001858461
0.402   1.4699106342
0.403   1.46980352675
0.404   1.46969725299
0.405   1.46959180376
0.406   1.46948717005
0.407   1.46938334295
0.408   1.46928031368
0.409   1.46917807359
0.41   1.46907661415
0.411   1.46897592692
0.412   1.4688760036
0.413   1.46877683599
0.414   1.46867841601
0.415   1.46858073569
0.416   1.46848378716
0.417   1.46838756264
0.418   1.46829205449
0.419   1.46819725514
0.42   1.46810315714
0.421   1.46800975313
0.422   1.46791703584
0.423   1.46782499811
0.424   1.46773363287
0.425   1.46764293314
0.426   1.46755289202
0.427   1.46746350272
0.428   1.46737475853
0.429   1.46728665282
0.43   1.46719917906
0.431   1.46711233078
0.432   1.46702610162
0.433   1.46694048528
0.434   1.46685547556
0.435   1.46677106632
0.436   1.46668725151
0.437   1.46660402515
0.438   1.46652138134
0.439   1.46643931425
0.44   1.46635781812
0.441   1.46627688727
0.442   1.4661965161
0.443   1.46611669905
0.444   1.46603743066
0.445   1.46595870552
0.446   1.46588051828
0.447   1.46580286368
0.448   1.4657257365
0.449   1.46564913161
0.45   1.46557304391
0.451   1.46549746839
0.452   1.46542240009
0.453   1.4653478341
0.454   1.4652737656
0.455   1.46520018979
0.456   1.46512710195
0.457   1.46505449741
0.458   1.46498237156
0.459   1.46491071984
0.46   1.46483953776
0.461   1.46476882085
0.462   1.46469856472
0.463   1.46462876504
0.464   1.46455941749
0.465   1.46449051784
0.466   1.46442206189
0.467   1.46435404551
0.468   1.46428646458
0.469   1.46421931507
0.47   1.46415259297
0.471   1.46408629432
0.472   1.46402041521
0.473   1.46395495178
0.474   1.4638899002
0.475   1.46382525671
0.476   1.46376101755
0.477   1.46369717905
0.478   1.46363373755
0.479   1.46357068945
0.48   1.46350803117
0.481   1.46344575918
0.482   1.46338387001
0.483   1.46332236019
0.484   1.46326122633
0.485   1.46320046505
0.486   1.463140073
0.487   1.46308004691
0.488   1.4630203835
0.489   1.46296107955
0.49   1.46290213187
0.491   1.46284353731
0.492   1.46278529275
0.493   1.4627273951
0.494   1.46266984131
0.495   1.46261262836
0.496   1.46255575326
0.497   1.46249921307
0.498   1.46244300487
0.499   1.46238712575
0.5   1.46233157287
0.501   1.4622763434
0.502   1.46222143453
0.503   1.46216684351
0.504   1.46211256759
0.505   1.46205860406
0.506   1.46200495025
0.507   1.4619516035
0.508   1.4618985612
0.509   1.46184582073
0.51   1.46179337955
0.511   1.4617412351
0.512   1.46168938486
0.513   1.46163782636
0.514   1.46158655713
0.515   1.46153557473
0.516   1.46148487676
0.517   1.46143446081
0.518   1.46138432454
0.519   1.4613344656
0.52   1.46128488169
0.521   1.46123557051
0.522   1.46118652979
0.523   1.4611377573
0.524   1.46108925081
0.525   1.46104100813
0.526   1.46099302708
0.527   1.4609453055
0.528   1.46089784128
0.529   1.46085063229
0.53   1.46080367645
0.531   1.46075697169
0.532   1.46071051597
0.533   1.46066430726
0.534   1.46061834355
0.535   1.46057262285
0.536   1.46052714321
0.537   1.46048190268
0.538   1.46043689932
0.539   1.46039213123
0.54   1.46034759653
0.541   1.46030329333
0.542   1.46025921979
0.543   1.46021537407
0.544   1.46017175436
0.545   1.46012835886
0.546   1.46008518578
0.547   1.46004223337
0.548   1.45999949987
0.549   1.45995698356
0.55   1.45991468273
0.551   1.45987259567
0.552   1.45983072072
0.553   1.45978905619
0.554   1.45974760045
0.555   1.45970635187
0.556   1.45966530882
0.557   1.45962446971
0.558   1.45958383295
0.559   1.45954339697
0.56   1.45950316021
0.561   1.45946312113
0.562   1.4594232782
0.563   1.45938362992
0.564   1.45934417478
0.565   1.45930491131
0.566   1.45926583802
0.567   1.45922695346
0.568   1.45918825619
0.569   1.45914974479
0.57   1.45911141783
0.571   1.4590732739
0.572   1.45903531163
0.573   1.45899752964
0.574   1.45895992655
0.575   1.45892250101
0.576   1.45888525169
0.577   1.45884817727
0.578   1.45881127641
0.579   1.45877454783
0.58   1.45873799022
0.581   1.45870160232
0.582   1.45866538284
0.583   1.45862933054
0.584   1.45859344417
0.585   1.45855772249
0.586   1.45852216428
0.587   1.45848676834
0.588   1.45845153345
0.589   1.45841645843
0.59   1.4583815421
0.591   1.45834678329
0.592   1.45831218084
0.593   1.4582777336
0.594   1.45824344044
0.595   1.45820930022
0.596   1.45817531183
0.597   1.45814147416
0.598   1.4581077861
0.599   1.45807424658
0.6   1.45804085451
0.601   1.45800760883
0.602   1.45797450846
0.603   1.45794155236
0.604   1.45790873949
0.605   1.45787606881
0.606   1.45784353931
0.607   1.45781114995
0.608   1.45777889975
0.609   1.45774678769
0.61   1.45771481279
0.611   1.45768297408
0.612   1.45765127057
0.613   1.4576197013
0.614   1.45758826532
0.615   1.45755696168
0.616   1.45752578943
0.617   1.45749474766
0.618   1.45746383543
0.619   1.45743305182
0.62   1.45740239594
0.621   1.45737186687
0.622   1.45734146374
0.623   1.45731118564
0.624   1.4572810317
0.625   1.45725100106
0.626   1.45722109284
0.627   1.4571913062
0.628   1.45716164028
0.629   1.45713209424
0.63   1.45710266725
0.631   1.45707335847
0.632   1.4570441671
0.633   1.4570150923
0.634   1.45698613328
0.635   1.45695728924
0.636   1.45692855937
0.637   1.4568999429
0.638   1.45687143903
0.639   1.456843047
0.64   1.45681476604
0.641   1.45678659538
0.642   1.45675853426
0.643   1.45673058195
0.644   1.45670273768
0.645   1.45667500073
0.646   1.45664737037
0.647   1.45661984586
0.648   1.45659242648
0.649   1.45656511153
0.65   1.45653790029
0.651   1.45651079206
0.652   1.45648378614
0.653   1.45645688184
0.654   1.45643007848
0.655   1.45640337536
0.656   1.45637677183
0.657   1.4563502672
0.658   1.45632386081
0.659   1.45629755201
0.66   1.45627134013
0.661   1.45624522454
0.662   1.45621920457
0.663   1.4561932796
0.664   1.456167449
0.665   1.45614171212
0.666   1.45611606835
0.667   1.45609051707
0.668   1.45606505767
0.669   1.45603968953
0.67   1.45601441204
0.671   1.45598922462
0.672   1.45596412666
0.673   1.45593911757
0.674   1.45591419676
0.675   1.45588936366
0.676   1.45586461769
0.677   1.45583995826
0.678   1.45581538483
0.679   1.45579089681
0.68   1.45576649365
0.681   1.45574217479
0.682   1.45571793968
0.683   1.45569378778
0.684   1.45566971855
0.685   1.45564573143
0.686   1.4556218259
0.687   1.45559800143
0.688   1.45557425748
0.689   1.45555059355
0.69   1.4555270091
0.691   1.45550350362
0.692   1.4554800766
0.693   1.45545672754
0.694   1.45543345592
0.695   1.45541026126
0.696   1.45538714305
0.697   1.4553641008
0.698   1.45534113402
0.699   1.45531824222
0.7   1.45529542494
0.701   1.45527268168
0.702   1.45525001197
0.703   1.45522741534
0.704   1.45520489133
0.705   1.45518243946
0.706   1.45516005929
0.707   1.45513775034
0.708   1.45511551217
0.709   1.45509334433
0.71   1.45507124637
0.711   1.45504921784
0.712   1.45502725831
0.713   1.45500536733
0.714   1.45498354447
0.715   1.4549617893
0.716   1.45494010139
0.717   1.45491848032
0.718   1.45489692567
0.719   1.454875437
0.72   1.45485401392
0.721   1.454832656
0.722   1.45481136284
0.723   1.45479013402
0.724   1.45476896915
0.725   1.45474786781
0.726   1.45472682962
0.727   1.45470585418
0.728   1.4546849411
0.729   1.45466408997
0.73   1.45464330043
0.731   1.45462257207
0.732   1.45460190452
0.733   1.45458129741
0.734   1.45456075035
0.735   1.45454026296
0.736   1.45451983489
0.737   1.45449946575
0.738   1.45447915519
0.739   1.45445890284
0.74   1.45443870833
0.741   1.45441857132
0.742   1.45439849143
0.743   1.45437846833
0.744   1.45435850166
0.745   1.45433859106
0.746   1.4543187362
0.747   1.45429893673
0.748   1.4542791923
0.749   1.45425950258
0.75   1.45423986724
0.751   1.45422028593
0.752   1.45420075832
0.753   1.45418128409
0.754   1.4541618629
0.755   1.45414249444
0.756   1.45412317837
0.757   1.45410391437
0.758   1.45408470214
0.759   1.45406554134
0.76   1.45404643167
0.761   1.45402737281
0.762   1.45400836446
0.763   1.4539894063
0.764   1.45397049802
0.765   1.45395163933
0.766   1.45393282992
0.767   1.45391406949
0.768   1.45389535774
0.769   1.45387669438
0.77   1.45385807911
0.771   1.45383951164
0.772   1.45382099168
0.773   1.45380251895
0.774   1.45378409314
0.775   1.45376571399
0.776   1.4537473812
0.777   1.4537290945
0.778   1.45371085361
0.779   1.45369265825
0.78   1.45367450814
0.781   1.45365640302
0.782   1.4536383426
0.783   1.45362032663
0.784   1.45360235482
0.785   1.45358442692
0.786   1.45356654267
0.787   1.45354870179
0.788   1.45353090402
0.789   1.45351314912
0.79   1.45349543681
0.791   1.45347776684
0.792   1.45346013897
0.793   1.45344255292
0.794   1.45342500847
0.795   1.45340750534
0.796   1.45339004331
0.797   1.45337262211
0.798   1.45335524151
0.799   1.45333790126
0.8   1.45332060112
0.801   1.45330334085
0.802   1.45328612021
0.803   1.45326893896
0.804   1.45325179688
0.805   1.45323469371
0.806   1.45321762924
0.807   1.45320060323
0.808   1.45318361545
0.809   1.45316666567
0.81   1.45314975367
0.811   1.45313287922
0.812   1.45311604209
0.813   1.45309924207
0.814   1.45308247893
0.815   1.45306575245
0.816   1.45304906241
0.817   1.45303240861
0.818   1.45301579081
0.819   1.45299920881
0.82   1.4529826624
0.821   1.45296615136
0.822   1.45294967548
0.823   1.45293323455
0.824   1.45291682837
0.825   1.45290045673
0.826   1.45288411942
0.827   1.45286781624
0.828   1.45285154699
0.829   1.45283531146
0.83   1.45281910946
0.831   1.45280294078
0.832   1.45278680523
0.833   1.45277070262
0.834   1.45275463274
0.835   1.4527385954
0.836   1.45272259041
0.837   1.45270661758
0.838   1.45269067672
0.839   1.45267476764
0.84   1.45265889014
0.841   1.45264304405
0.842   1.45262722917
0.843   1.45261144532
0.844   1.45259569232
0.845   1.45257996999
0.846   1.45256427814
0.847   1.45254861659
0.848   1.45253298516
0.849   1.45251738368
0.85   1.45250181197
0.851   1.45248626984
0.852   1.45247075714
0.853   1.45245527367
0.854   1.45243981927
0.855   1.45242439377
0.856   1.452408997
0.857   1.45239362878
0.858   1.45237828895
0.859   1.45236297734
0.86   1.45234769378
0.861   1.4523324381
0.862   1.45231721014
0.863   1.45230200975
0.864   1.45228683674
0.865   1.45227169097
0.866   1.45225657226
0.867   1.45224148047
0.868   1.45222641542
0.869   1.45221137697
0.87   1.45219636495
0.871   1.45218137921
0.872   1.45216641959
0.873   1.45215148594
0.874   1.45213657811
0.875   1.45212169593
0.876   1.45210683926
0.877   1.45209200795
0.878   1.45207720185
0.879   1.45206242081
0.88   1.45204766467
0.881   1.45203293329
0.882   1.45201822653
0.883   1.45200354424
0.884   1.45198888627
0.885   1.45197425248
0.886   1.45195964273
0.887   1.45194505687
0.888   1.45193049476
0.889   1.45191595626
0.89   1.45190144122
0.891   1.45188694952
0.892   1.45187248101
0.893   1.45185803555
0.894   1.45184361301
0.895   1.45182921325
0.896   1.45181483613
0.897   1.45180048152
0.898   1.45178614929
0.899   1.45177183929
0.9   1.45175755141
0.901   1.45174328551
0.902   1.45172904145
0.903   1.4517148191
0.904   1.45170061835
0.905   1.45168643905
0.906   1.45167228108
0.907   1.45165814431
0.908   1.45164402862
0.909   1.45162993387
0.91   1.45161585995
0.911   1.45160180673
0.912   1.45158777408
0.913   1.45157376189
0.914   1.45155977002
0.915   1.45154579836
0.916   1.45153184679
0.917   1.45151791518
0.918   1.45150400342
0.919   1.45149011139
0.92   1.45147623896
0.921   1.45146238602
0.922   1.45144855245
0.923   1.45143473814
0.924   1.45142094297
0.925   1.45140716682
0.926   1.45139340959
0.927   1.45137967114
0.928   1.45136595138
0.929   1.45135225019
0.93   1.45133856745
0.931   1.45132490306
0.932   1.45131125691
0.933   1.45129762887
0.934   1.45128401885
0.935   1.45127042673
0.936   1.45125685241
0.937   1.45124329578
0.938   1.45122975672
0.939   1.45121623514
0.94   1.45120273092
0.941   1.45118924397
0.942   1.45117577417
0.943   1.45116232142
0.944   1.45114888561
0.945   1.45113546665
0.946   1.45112206443
0.947   1.45110867884
0.948   1.45109530979
0.949   1.45108195717
0.95   1.45106862089
0.951   1.45105530084
0.952   1.45104199692
0.953   1.45102870903
0.954   1.45101543708
0.955   1.45100218096
0.956   1.45098894058
0.957   1.45097571585
0.958   1.45096250666
0.959   1.45094931291
0.96   1.45093613452
0.961   1.45092297139
0.962   1.45090982342
0.963   1.45089669051
0.964   1.45088357259
0.965   1.45087046954
0.966   1.45085738128
0.967   1.45084430772
0.968   1.45083124877
0.969   1.45081820432
0.97   1.4508051743
0.971   1.45079215861
0.972   1.45077915716
0.973   1.45076616987
0.974   1.45075319664
0.975   1.45074023738
0.976   1.45072729202
0.977   1.45071436045
0.978   1.45070144259
0.979   1.45068853836
0.98   1.45067564766
0.981   1.45066277043
0.982   1.45064990655
0.983   1.45063705597
0.984   1.45062421858
0.985   1.4506113943
0.986   1.45059858305
0.987   1.45058578475
0.988   1.45057299932
0.989   1.45056022667
0.99   1.45054746671
0.991   1.45053471938
0.992   1.45052198458
0.993   1.45050926224
0.994   1.45049655228
0.995   1.45048385461
0.996   1.45047116915
0.997   1.45045849584
0.998   1.45044583458
0.999   1.4504331853
1.0   1.45042054792
1.001   1.45040792237
1.002   1.45039530857
1.003   1.45038270643
1.004   1.45037011589
1.005   1.45035753687
1.006   1.45034496929
1.007   1.45033241307
1.008   1.45031986815
1.009   1.45030733444
1.01   1.45029481188
1.011   1.45028230038
1.012   1.45026979988
1.013   1.4502573103
1.014   1.45024483157
1.015   1.45023236362
1.016   1.45021990638
1.017   1.45020745976
1.018   1.45019502371
1.019   1.45018259815
1.02   1.45017018301
1.021   1.45015777822
1.022   1.45014538371
1.023   1.45013299941
1.024   1.45012062525
1.025   1.45010826116
1.026   1.45009590708
1.027   1.45008356293
1.028   1.45007122865
1.029   1.45005890416
1.03   1.45004658941
1.031   1.45003428433
1.032   1.45002198884
1.033   1.45000970288
1.034   1.44999742639
1.035   1.4499851593
1.036   1.44997290154
1.037   1.44996065306
1.038   1.44994841378
1.039   1.44993618363
1.04   1.44992396257
1.041   1.44991175052
1.042   1.44989954741
1.043   1.44988735319
1.044   1.4498751678
1.045   1.44986299116
1.046   1.44985082322
1.047   1.44983866392
1.048   1.44982651319
1.049   1.44981437097
1.05   1.4498022372
1.051   1.44979011182
1.052   1.44977799477
1.053   1.44976588599
1.054   1.44975378542
1.055   1.449741693
1.056   1.44972960867
1.057   1.44971753236
1.058   1.44970546403
1.059   1.44969340361
1.06   1.44968135105
1.061   1.44966930628
1.062   1.44965726925
1.063   1.4496452399
1.064   1.44963321817
1.065   1.44962120401
1.066   1.44960919736
1.067   1.44959719817
1.068   1.44958520636
1.069   1.4495732219
1.07   1.44956124473
1.071   1.44954927478
1.072   1.44953731201
1.073   1.44952535635
1.074   1.44951340776
1.075   1.44950146618
1.076   1.44948953156
1.077   1.44947760383
1.078   1.44946568296
1.079   1.44945376888
1.08   1.44944186154
1.081   1.44942996088
1.082   1.44941806687
1.083   1.44940617943
1.084   1.44939429852
1.085   1.4493824241
1.086   1.4493705561
1.087   1.44935869447
1.088   1.44934683917
1.089   1.44933499014
1.09   1.44932314733
1.091   1.44931131069
1.092   1.44929948017
1.093   1.44928765572
1.094   1.44927583729
1.095   1.44926402483
1.096   1.44925221829
1.097   1.44924041763
1.098   1.44922862278
1.099   1.44921683371
1.1   1.44920505036
1.101   1.44919327269
1.102   1.44918150064
1.103   1.44916973418
1.104   1.44915797324
1.105   1.44914621779
1.106   1.44913446778
1.107   1.44912272316
1.108   1.44911098388
1.109   1.44909924989
1.11   1.44908752116
1.111   1.44907579762
1.112   1.44906407925
1.113   1.44905236598
1.114   1.44904065778
1.115   1.4490289546
1.116   1.44901725639
1.117   1.44900556311
1.118   1.44899387471
1.119   1.44898219115
1.12   1.44897051239
1.121   1.44895883838
1.122   1.44894716907
1.123   1.44893550443
1.124   1.4489238444
1.125   1.44891218894
1.126   1.44890053802
1.127   1.44888889158
1.128   1.44887724959
1.129   1.448865612
1.13   1.44885397877
1.131   1.44884234986
1.132   1.44883072522
1.133   1.44881910481
1.134   1.44880748859
1.135   1.44879587651
1.136   1.44878426855
1.137   1.44877266465
1.138   1.44876106477
1.139   1.44874946888
1.14   1.44873787692
1.141   1.44872628887
1.142   1.44871470468
1.143   1.44870312431
1.144   1.44869154771
1.145   1.44867997486
1.146   1.4486684057
1.147   1.44865684021
1.148   1.44864527834
1.149   1.44863372004
1.15   1.44862216529
1.151   1.44861061404
1.152   1.44859906626
1.153   1.4485875219
1.154   1.44857598092
1.155   1.44856444329
1.156   1.44855290898
1.157   1.44854137793
1.158   1.44852985012
1.159   1.4485183255
1.16   1.44850680404
1.161   1.44849528571
1.162   1.44848377045
1.163   1.44847225824
1.164   1.44846074905
1.165   1.44844924282
1.166   1.44843773953
1.167   1.44842623913
1.168   1.4484147416
1.169   1.4484032469
1.17   1.44839175499
1.171   1.44838026583
1.172   1.44836877939
1.173   1.44835729563
1.174   1.44834581452
1.175   1.44833433602
1.176   1.44832286009
1.177   1.44831138671
1.178   1.44829991583
1.179   1.44828844743
1.18   1.44827698146
1.181   1.4482655179
1.182   1.4482540567
1.183   1.44824259784
1.184   1.44823114128
1.185   1.44821968698
1.186   1.44820823491
1.187   1.44819678505
1.188   1.44818533734
1.189   1.44817389177
1.19   1.44816244829
1.191   1.44815100688
1.192   1.44813956751
1.193   1.44812813013
1.194   1.44811669471
1.195   1.44810526123
1.196   1.44809382965
1.197   1.44808239994
1.198   1.44807097206
1.199   1.44805954599
1.2   1.44804812169
1.201   1.44803669913
1.202   1.44802527828
1.203   1.4480138591
1.204   1.44800244157
1.205   1.44799102565
1.206   1.44797961132
1.207   1.44796819853
1.208   1.44795678727
1.209   1.44794537749
1.21   1.44793396918
1.211   1.44792256229
1.212   1.4479111568
1.213   1.44789975268
1.214   1.44788834989
1.215   1.44787694841
1.216   1.4478655482
1.217   1.44785414924
1.218   1.4478427515
1.219   1.44783135495
1.22   1.44781995955
1.221   1.44780856528
1.222   1.44779717211
1.223   1.44778578
1.224   1.44777438894
1.225   1.44776299889
1.226   1.44775160982
1.227   1.4477402217
1.228   1.44772883451
1.229   1.44771744821
1.23   1.44770606278
1.231   1.44769467819
1.232   1.44768329441
1.233   1.44767191141
1.234   1.44766052917
1.235   1.44764914765
1.236   1.44763776683
1.237   1.44762638668
1.238   1.44761500718
1.239   1.44760362829
1.24   1.44759224998
1.241   1.44758087224
1.242   1.44756949504
1.243   1.44755811834
1.244   1.44754674211
1.245   1.44753536634
1.246   1.447523991
1.247   1.44751261606
1.248   1.44750124148
1.249   1.44748986726
1.25   1.44747849335
1.251   1.44746711974
1.252   1.44745574639
1.253   1.44744437328
1.254   1.44743300039
1.255   1.44742162769
1.256   1.44741025515
1.257   1.44739888274
1.258   1.44738751045
1.259   1.44737613824
1.26   1.4473647661
1.261   1.44735339398
1.262   1.44734202188
1.263   1.44733064976
1.264   1.44731927761
1.265   1.44730790538
1.266   1.44729653307
1.267   1.44728516064
1.268   1.44727378807
1.269   1.44726241533
1.27   1.44725104241
1.271   1.44723966927
1.272   1.44722829589
1.273   1.44721692225
1.274   1.44720554832
1.275   1.44719417409
1.276   1.44718279951
1.277   1.44717142458
1.278   1.44716004927
1.279   1.44714867355
1.28   1.4471372974
1.281   1.44712592079
1.282   1.44711454371
1.283   1.44710316613
1.284   1.44709178802
1.285   1.44708040937
1.286   1.44706903014
1.287   1.44705765032
1.288   1.44704626989
1.289   1.44703488881
1.29   1.44702350707
1.291   1.44701212465
1.292   1.44700074152
1.293   1.44698935765
1.294   1.44697797304
1.295   1.44696658764
1.296   1.44695520145
1.297   1.44694381444
1.298   1.44693242659
1.299   1.44692103787
1.3   1.44690964827
