tertiaryphi                                      2 body  0 random   0  0.0                  1.0  0.0  0.0  0.0  0.0  0.0   1.5707963267948966                  0.0  
tertiarytheta                                    2 body  2 random   1  0.0   0.7853981633974483  0.0  0.0  0.0  0.0  1.0                  0.0                  0.0  
ODIphi             3|4|5|6|7|8|9|10|11|12|13|14|15 body  0 random   2  0.0                  1.0  0.0  0.0  0.0  0.0  0.0   1.5707963267948966                  0.0  
ODItheta           3|4|5|6|7|8|9|10|11|12|13|14|15 body  2 random   3  0.0   1.5707963267948966  0.0  0.0  0.0  0.0  1.0                  0.0                  0.0  
FCL1x              3|4|5|6|7|8|9|10|11|12|13|14|15 body  3 random   4  0.0              2247.56  0.0  0.0  0.0  0.0  1.0                  0.0                  0.0  
FCL2x                4|5|6|7|8|9|10|11|12|13|14|15 body  3 random   5  0.0                 31.0  0.0  0.0  0.0  0.0  1.0                  0.0                  0.0  
ADC11theta                                       5 body  2 random   3  0.0     5.34908649682e-4  0.0  0.0  0.0  0.0  1.0                  0.0                  0.0  
ADC11x                 5|6|7|8|9|10|11|12|13|14|15 body  3 random   6  0.0      439.15324764338  0.0  0.0  0.0  0.0  1.0                  0.0                  0.0  
ADC12x                   6|7|8|9|10|11|12|13|14|15 body  3 random   7  0.0                 20.0  0.0  0.0  0.0  0.0  1.0                  0.0                  0.0  
ADC13theta                                       7 body  2 random   3  0.0     4.96883301577e-4  0.0  0.0  0.0  0.0  1.0                  0.0                  0.0  
ADC13x                     7|8|9|10|11|12|13|14|15 body  3 random   8  0.0                 20.0  0.0  0.0  0.0  0.0  1.0                  0.0                  0.0  
ADC21theta                                       8 body  2 random   3  0.0     5.34908649682e-4  0.0  0.0  0.0  0.0  1.0                  0.0                  0.0  
ADC21x                       8|9|10|11|12|13|14|15 body  3 random   9  0.0                 40.0  0.0  0.0  0.0  0.0  1.0                  0.0                  0.0  
ADC22x                         9|10|11|12|13|14|15 body  3 random  10  0.0                 20.0  0.0  0.0  0.0  0.0  1.0                  0.0                  0.0  
ADC23theta                                      10 body  2 random   3  0.0     4.96883301577e-4  0.0  0.0  0.0  0.0  1.0                  0.0                  0.0  
ADC23x                           10|11|12|13|14|15 body  3 random  11  0.0                 20.0  0.0  0.0  0.0  0.0  1.0                  0.0                  0.0  
F1x                                 11|12|13|14|15 body  3 random  12  0.0                 84.0  0.0  0.0  0.0  0.0  1.0                  0.0                  0.0  
F2x                                    12|13|14|15 body  3 random  13  0.0                 10.0  0.0  0.0  0.0  0.0  1.0                  0.0                  0.0  
L21x                                      13|14|15 body  3 random  14  0.0                112.0  0.0  0.0  0.0  0.0  1.0                  0.0                  0.0  
L22x                                         14|15 body  3 random  15  0.0                 50.0  0.0  0.0  0.0  0.0  1.0                  0.0                  0.0  
FPAx                                            15 body  3 random  16  0.0                100.0  0.0  0.0  0.0  0.0  1.0                  0.0                  0.0
M1sh                                            0  shape 48 physics 0.05 1 100 25 0.05 5e-8 100 200
