#
# @package phosim
# @brief phosim data file
#
# @brief Created by:
# @author John R. Peterson (Purdue)
#
# @brief Modified by:
#
#  @warning Please treat results using PhoSim with caution as this project is in active development.
#  @warning This material is copyrighted and subject to a open source license with restrictions.  See COPYING for details.
#
optics y    0.8    6.0 0.5    1709.9337 1 1 0
primary mirror     200.0000      0.0000     50.0000      6.2500 -1 0 0 0 0 0 0 0 0 0 0 0 0 0 0 0 protected_al air none
filter  lens        -5.7500     88.0000      6.2500      0.0000 -1 0 0 0 0 0 0 0 0 0 0 0 0 0 0 0 mko_y sio2 none
filter  lens        -5.6350      0.2500      6.2500      0.0000 -1 0 0 0 0 0 0 0 0 0 0 0 0 0 0 0 lens_ar air none
image   det          0.0000     11.7500      1.5000      0.0000  0 0 0 0 0 0 0 0 0 0 0 0 0 0 0 0 detector_ar air none
