#
# @package phosim
# @brief phosim data file
#
# @brief Created by:
# @author John R. Peterson (Purdue)
#
# @brief Modified by:
#
#  @warning Please treat results using PhoSim with caution as this project is in active development.
#  @warning This material is copyrighted and subject to a open source license with restrictions.  See COPYING for details.
#
optics kp    0.8    6.0 0.5  683973.5000 1 1 0
primary mirror   80000.0000      0.0000   5000.0000    625.0000 -1 0 0 0 0 0 0 0 0 0 0 0 0 0 0 0 protected_al air none
filter  lens     -2300.0002  35200.0000    625.0000      0.0000 -1 0 0 0 0 0 0 0 0 0 0 0 0 0 0 0 mko_kp sio2 none
filter  lens     -2254.0002    100.0000    625.0000      0.0000 -1 0 0 0 0 0 0 0 0 0 0 0 0 0 0 0 lens_ar air none
image   det          0.0000   4700.0000    600.0000      0.0000  0 0 0 0 0 0 0 0 0 0 0 0 0 0 0 0 detector_ar air none
