#
# @package phosim
# @brief phosim data file
#
# @brief Created by:
# @author John R. Peterson (Purdue)
#
# @brief Modified by:
#
#  @warning Please treat results using PhoSim with caution as this project is in active development.
#  @warning This material is copyrighted and subject to a open source license with restrictions.  See COPYING for details.
#
optics i    0.2    1.2 0.5  341986.7500 1 1 0
primary mirror   40000.0000      0.0000   5000.0000    625.0000 -1 0 0 0 0 0 0 0 0 0 0 0 0 0 0 0 protected_al air none
filter  lens     -1150.0001  17610.0000    625.0000      0.0000 -1 0 0 0 0 0 0 0 0 0 0 0 0 0 0 0 sdss_i sio2 none
filter  lens     -1127.0001     50.0000    625.0000      0.0000 -1 0 0 0 0 0 0 0 0 0 0 0 0 0 0 0 lens_ar air none
image   det          0.0000   2340.0000    300.0000      0.0000  0 0 0 0 0 0 0 0 0 0 0 0 0 0 0 0 detector_ar air none
