#filter g'
0.0000	0.300000	0.000000	1.000000
0.0000	0.373770	0.000000	1.000000
0.0000	0.374750	0.000040	0.999960
0.0000	0.375720	0.000120	0.999880
0.0000	0.376700	0.000210	0.999790
0.0000	0.377670	0.000320	0.999680
0.0000	0.378640	0.000480	0.999520
0.0000	0.379620	0.000680	0.999320
0.0000	0.380590	0.001090	0.998910
0.0000	0.381570	0.001980	0.998020
0.0000	0.382540	0.003680	0.996320
0.0000	0.383520	0.006690	0.993310
0.0000	0.384490	0.011670	0.988330
0.0000	0.385470	0.019410	0.980590
0.0000	0.386440	0.030840	0.969160
0.0000	0.387420	0.046860	0.953140
0.0000	0.388390	0.067910	0.932090
0.0000	0.389360	0.094030	0.905970
0.0000	0.390340	0.124690	0.875310
0.0000	0.391310	0.158990	0.841010
0.0000	0.392290	0.195900	0.804100
0.0000	0.393260	0.233900	0.766100
0.0000	0.394240	0.271450	0.728550
0.0000	0.395210	0.307720	0.692280
0.0000	0.396190	0.342220	0.657780
0.0000	0.397160	0.375490	0.624510
0.0000	0.398130	0.408910	0.591090
0.0000	0.399110	0.443760	0.556240
0.0000	0.400080	0.480590	0.519410
0.0000	0.401060	0.518030	0.481970
0.0000	0.402030	0.553460	0.446540
0.0000	0.403010	0.584570	0.415430
0.0000	0.403980	0.609680	0.390320
0.0000	0.404960	0.628980	0.371020
0.0000	0.405930	0.644530	0.355470
0.0000	0.406910	0.658830	0.341170
0.0000	0.407880	0.674210	0.325790
0.0000	0.408850	0.691270	0.308730
0.0000	0.409830	0.709020	0.290980
0.0000	0.410800	0.726570	0.273430
0.0000	0.411780	0.742690	0.257310
0.0000	0.412750	0.756170	0.243830
0.0000	0.413730	0.767490	0.232510
0.0000	0.414700	0.777580	0.222420
0.0000	0.415680	0.786120	0.213880
0.0000	0.416650	0.793510	0.206490
0.0000	0.417620	0.800930	0.199070
0.0000	0.418600	0.808590	0.191410
0.0000	0.419570	0.816320	0.183680
0.0000	0.420550	0.823920	0.176080
0.0000	0.421520	0.831130	0.168870
0.0000	0.422500	0.837270	0.162730
0.0000	0.423470	0.841920	0.158080
0.0000	0.424450	0.845660	0.154340
0.0000	0.425420	0.848990	0.151010
0.0000	0.426400	0.851360	0.148640
0.0000	0.427370	0.852650	0.147350
0.0000	0.428340	0.853220	0.146780
0.0000	0.429320	0.852890	0.147110
0.0000	0.430290	0.852300	0.147700
0.0000	0.431270	0.852690	0.147310
0.0000	0.432240	0.854600	0.145400
0.0000	0.433220	0.858090	0.141910
0.0000	0.434190	0.863020	0.136980
0.0000	0.435170	0.868730	0.131270
0.0000	0.436140	0.874350	0.125650
0.0000	0.437120	0.879530	0.120470
0.0000	0.438090	0.883990	0.116010
0.0000	0.439060	0.887360	0.112640
0.0000	0.440040	0.890090	0.109910
0.0000	0.441010	0.892840	0.107160
0.0000	0.441990	0.895310	0.104690
0.0000	0.442960	0.897030	0.102970
0.0000	0.443940	0.898440	0.101560
0.0000	0.444910	0.899790	0.100210
0.0000	0.445890	0.900560	0.099440
0.0000	0.446860	0.900890	0.099110
0.0000	0.447830	0.901210	0.098790
0.0000	0.448810	0.901560	0.098440
0.0000	0.449780	0.902050	0.097950
0.0000	0.450760	0.902320	0.097680
0.0000	0.451730	0.901970	0.098030
0.0000	0.452710	0.901620	0.098380
0.0000	0.453680	0.902070	0.097930
0.0000	0.454660	0.903030	0.096970
0.0000	0.455630	0.904640	0.095360
0.0000	0.456610	0.907560	0.092440
0.0000	0.457580	0.911260	0.088740
0.0000	0.458550	0.914890	0.085110
0.0000	0.459530	0.918110	0.081890
0.0000	0.460500	0.920930	0.079070
0.0000	0.461480	0.923050	0.076950
0.0000	0.462450	0.923900	0.076100
0.0000	0.463430	0.923610	0.076390
0.0000	0.464400	0.922670	0.077330
0.0000	0.465380	0.921410	0.078590
0.0000	0.466350	0.919750	0.080250
0.0000	0.467330	0.918360	0.081640
0.0000	0.468300	0.917870	0.082130
0.0000	0.469270	0.918090	0.081910
0.0000	0.470250	0.918570	0.081430
0.0000	0.471220	0.919070	0.080930
0.0000	0.472200	0.919580	0.080420
0.0000	0.473170	0.919970	0.080030
0.0000	0.474150	0.919990	0.080010
0.0000	0.475120	0.919870	0.080130
0.0000	0.476100	0.920290	0.079710
0.0000	0.477070	0.921460	0.078540
0.0000	0.478040	0.923320	0.076680
0.0000	0.479020	0.925910	0.074090
0.0000	0.479990	0.929000	0.071000
0.0000	0.480970	0.932020	0.067980
0.0000	0.481940	0.934760	0.065240
0.0000	0.482920	0.936880	0.063120
0.0000	0.483890	0.937850	0.062150
0.0000	0.484870	0.937240	0.062760
0.0000	0.485840	0.935550	0.064450
0.0000	0.486820	0.933190	0.066810
0.0000	0.487790	0.929860	0.070140
0.0000	0.488760	0.925810	0.074190
0.0000	0.489740	0.921750	0.078250
0.0000	0.490710	0.918220	0.081780
0.0000	0.491690	0.915150	0.084850
0.0000	0.492660	0.912480	0.087520
0.0000	0.493640	0.910260	0.089740
0.0000	0.494610	0.908700	0.091300
0.0000	0.495590	0.908080	0.091920
0.0000	0.496560	0.908330	0.091670
0.0000	0.497540	0.909310	0.090690
0.0000	0.498510	0.910580	0.089420
0.0000	0.499480	0.912370	0.087630
0.0000	0.500460	0.914540	0.085460
0.0000	0.501430	0.916730	0.083270
0.0000	0.502410	0.918800	0.081200
0.0000	0.503380	0.920570	0.079430
0.0000	0.504360	0.922610	0.077390
0.0000	0.505330	0.924870	0.075130
0.0000	0.506310	0.927010	0.072990
0.0000	0.507280	0.928790	0.071210
0.0000	0.508250	0.930330	0.069670
0.0000	0.509230	0.931950	0.068050
0.0000	0.510200	0.933350	0.066650
0.0000	0.511180	0.934190	0.065810
0.0000	0.512150	0.934650	0.065350
0.0000	0.513130	0.934680	0.065320
0.0000	0.514100	0.933940	0.066060
0.0000	0.515080	0.932310	0.067690
0.0000	0.516050	0.930060	0.069940
0.0000	0.517030	0.927190	0.072810
0.0000	0.518000	0.923640	0.076360
0.0000	0.518970	0.920040	0.079960
0.0000	0.519950	0.916830	0.083170
0.0000	0.520920	0.913930	0.086070
0.0000	0.521900	0.911500	0.088500
0.0000	0.522870	0.909860	0.090140
0.0000	0.523850	0.908910	0.091090
0.0000	0.524820	0.908190	0.091810
0.0000	0.525800	0.907440	0.092560
0.0000	0.526770	0.906970	0.093030
0.0000	0.527740	0.906630	0.093370
0.0000	0.528720	0.905920	0.094080
0.0000	0.529690	0.903140	0.096860
0.0000	0.530670	0.894620	0.105380
0.0000	0.531640	0.880590	0.119410
0.0000	0.532620	0.858230	0.141770
0.0000	0.533590	0.824930	0.175070
0.0000	0.534570	0.779050	0.220950
0.0000	0.535540	0.720340	0.279660
0.0000	0.536520	0.652430	0.347570
0.0000	0.537490	0.576180	0.423820
0.0000	0.538460	0.495900	0.504100
0.0000	0.539440	0.416210	0.583790
0.0000	0.540410	0.341160	0.658840
0.0000	0.541390	0.273820	0.726180
0.0000	0.542360	0.216310	0.783690
0.0000	0.543340	0.169110	0.830890
0.0000	0.544310	0.131410	0.868590
0.0000	0.545290	0.101890	0.898110
0.0000	0.546260	0.079080	0.920920
0.0000	0.547240	0.061670	0.938330
0.0000	0.548210	0.048420	0.951580
0.0000	0.549180	0.038310	0.961690
0.0000	0.550160	0.030500	0.969500
0.0000	0.551130	0.024430	0.975570
0.0000	0.552110	0.019700	0.980300
0.0000	0.553080	0.015950	0.984050
0.0000	0.554060	0.012970	0.987030
0.0000	0.555030	0.010580	0.989420
0.0000	0.556010	0.008660	0.991340
0.0000	0.556980	0.007140	0.992860
0.0000	0.557950	0.005900	0.994100
0.0000	0.558930	0.004880	0.995120
0.0000	0.559900	0.004060	0.995940
0.0000	0.560880	0.003370	0.996630
0.0000	0.561850	0.002580	0.997420
0.0000	0.562830	0.001880	0.998120
0.0000	0.563800	0.001320	0.998680
0.0000	0.564780	0.000860	0.999140
0.0000	0.565750	0.000470	0.999530
0.0000	0.566730	0.000150	0.999850
0.0000	0.567700	0.000000	1.000000
0.0000	1.200000	0.000000	1.000000
