0.50   1.39669625808
0.51   1.39639349761
0.52   1.3961065782
0.53   1.39583424647
0.54   1.39557536774
0.55   1.3953289127
0.56   1.39509394586
0.57   1.39486961539
0.58   1.39465514429
0.59   1.39444982261
0.60   1.39425300058
0.61   1.39406408256
0.62   1.39388252172
0.63   1.3937078153
0.64   1.39353950038
0.65   1.39337715016
0.66   1.39322037059
0.67   1.39306879741
0.68   1.3929220935
0.69   1.39277994643
0.70   1.39264206636
0.71   1.39250818406
0.72   1.39237804922
0.73   1.39225142883
0.74   1.39212810579
0.75   1.39200787758
0.76   1.39189055515
0.77   1.39177596182
0.78   1.39166393233
0.79   1.39155431194
0.80   1.39144695569
0.81   1.39134172761
0.82   1.39123850007
0.83   1.39113715318
0.84   1.39103757425
0.85   1.39093965724
0.86   1.39084330231
0.87   1.39074841538
0.88   1.39065490777
0.89   1.39056269577
0.90   1.39047170037
0.91   1.39038184689
0.92   1.39029306475
0.93   1.39020528715
0.94   1.39011845089
0.95   1.39003249608
0.96   1.38994736595
0.97   1.38986300668
0.98   1.38977936721
0.99   1.38969639903
1.00   1.38961405609
1.01   1.38953229461
1.02   1.38945107295
1.03   1.3893703515
1.04   1.38929009255
1.05   1.38921026019
1.06   1.38913082021
1.07   1.38905173998
1.08   1.38897298838
1.09   1.38889453573
1.10   1.38881635367
1.11   1.38873841516
1.12   1.38866069431
1.13   1.3885831664
1.14   1.3885058078
1.15   1.38842859587
1.16   1.38835150897
1.17   1.38827452637
1.18   1.38819762821
1.19   1.38812079546
1.20   1.38804400988
1.21   1.38796725399
1.22   1.387890511
1.23   1.38781376481
1.24   1.38773699995
1.25   1.38766020157
1.26   1.38758335542
1.27   1.38750644778
1.28   1.38742946547
1.29   1.38735239582
1.30   1.38727522662
1.31   1.38719794615
1.32   1.3871205431
1.33   1.3870430066
1.34   1.38696532617
1.35   1.3868874917
1.36   1.38680949346
1.37   1.38673132207
1.38   1.38665296847
1.39   1.38657442394
1.40   1.38649568003
1.41   1.38641672862
1.42   1.38633756185
1.43   1.38625817212
1.44   1.38617855211
1.45   1.38609869473
1.46   1.38601859313
1.47   1.38593824068
1.48   1.38585763097
1.49   1.3857767578
1.50   1.38569561518
1.51   1.38561419729
1.52   1.3855324985
1.53   1.38545051338
1.54   1.38536823664
1.55   1.38528566316
1.56   1.38520278798
1.57   1.38511960631
1.58   1.38503611347
1.59   1.38495230493
1.60   1.38486817632
1.61   1.38478372337
1.62   1.38469894195
1.63   1.38461382803
1.64   1.38452837772
1.65   1.38444258723
1.66   1.38435645286
1.67   1.38426997105
1.68   1.38418313831
1.69   1.38409595126
1.70   1.38400840659
1.71   1.38392050112
1.72   1.38383223171
1.73   1.38374359534
1.74   1.38365458904
1.75   1.38356520995
1.76   1.38347545525
1.77   1.38338532221
1.78   1.38329480818
1.79   1.38320391054
1.80   1.38311262678
1.81   1.38302095443
1.82   1.38292889107
1.83   1.38283643436
1.84   1.382743582
1.85   1.38265033176
1.86   1.38255668145
1.87   1.38246262893
1.88   1.38236817212
1.89   1.38227330898
1.90   1.38217803752
1.91   1.3820823558
1.92   1.3819862619
1.93   1.38188975398
1.94   1.3817928302
1.95   1.38169548878
1.96   1.38159772799
1.97   1.38149954611
1.98   1.38140094147
1.99   1.38130191244
2.00   1.38120245742
2.01   1.38110257482
2.02   1.38100226312
2.03   1.3809015208
2.04   1.38080034639
2.05   1.38069873842
2.06   1.38059669549
2.07   1.38049421619
2.08   1.38039129915
2.09   1.38028794303
2.10   1.38018414651
2.11   1.38007990828
2.12   1.37997522708
2.13   1.37987010166
2.14   1.37976453078
2.15   1.37965851324
2.16   1.37955204784
2.17   1.37944513343
2.18   1.37933776884
2.19   1.37922995295
2.20   1.37912168465
2.21   1.37901296285
2.22   1.37890378645
2.23   1.37879415441
2.24   1.37868406568
2.25   1.37857351923
2.26   1.37846251403
2.27   1.37835104911
2.28   1.37823912346
2.29   1.37812673612
2.30   1.37801388613
2.31   1.37790057255
2.32   1.37778679443
2.33   1.37767255087
2.34   1.37755784095
2.35   1.37744266378
2.36   1.37732701848
2.37   1.37721090416
2.38   1.37709431997
2.39   1.37697726506
2.40   1.37685973857
2.41   1.37674173969
2.42   1.37662326757
2.43   1.37650432142
2.44   1.37638490042
2.45   1.37626500378
2.46   1.3761446307
2.47   1.37602378042
2.48   1.37590245215
2.49   1.37578064514
2.50   1.37565835863
2.51   1.37553559186
2.52   1.37541234409
2.53   1.3752886146
2.54   1.37516440265
2.55   1.37503970751
2.56   1.37491452848
2.57   1.37478886484
2.58   1.37466271588
2.59   1.37453608092
2.60   1.37440895926
2.61   1.3742813502
2.62   1.37415325308
2.63   1.37402466721
2.64   1.37389559191
2.65   1.37376602654
2.66   1.37363597041
2.67   1.37350542287
2.68   1.37337438328
2.69   1.37324285097
2.70   1.37311082532
2.71   1.37297830566
2.72   1.37284529138
2.73   1.37271178182
2.74   1.37257777638
2.75   1.37244327441
2.76   1.37230827529
2.77   1.37217277841
2.78   1.37203678315
2.79   1.3719002889
2.80   1.37176329504
2.81   1.37162580097
2.82   1.37148780608
2.83   1.37134930977
2.84   1.37121031144
2.85   1.3710708105
2.86   1.37093080635
2.87   1.3707902984
2.88   1.37064928606
2.89   1.37050776873
2.90   1.37036574584
2.91   1.37022321681
2.92   1.37008018104
2.93   1.36993663796
2.94   1.36979258699
2.95   1.36964802756
2.96   1.36950295909
2.97   1.369357381
2.98   1.36921129273
2.99   1.3690646937
3.00   1.36891758335
3.01   1.36876996111
3.02   1.36862182641
3.03   1.36847317869
3.04   1.36832401738
3.05   1.36817434192
3.06   1.36802415175
3.07   1.3678734463
3.08   1.36772222502
3.09   1.36757048735
3.10   1.36741823273
3.11   1.3672654606
3.12   1.3671121704
3.13   1.36695836158
3.14   1.36680403359
3.15   1.36664918586
3.16   1.36649381784
3.17   1.36633792898
3.18   1.36618151873
3.19   1.36602458653
3.20   1.36586713183
3.21   1.36570915407
3.22   1.3655506527
3.23   1.36539162718
3.24   1.36523207694
3.25   1.36507200144
3.26   1.36491140013
3.27   1.36475027245
3.28   1.36458861785
3.29   1.36442643578
3.30   1.36426372569
3.31   1.36410048702
3.32   1.36393671923
3.33   1.36377242176
3.34   1.36360759406
3.35   1.36344223558
3.36   1.36327634577
3.37   1.36310992406
3.38   1.36294296991
3.39   1.36277548277
3.40   1.36260746208
3.41   1.36243890728
3.42   1.36226981783
3.43   1.36210019316
3.44   1.36193003273
3.45   1.36175933597
3.46   1.36158810232
3.47   1.36141633124
3.48   1.36124402216
3.49   1.36107117453
3.50   1.36089778778
3.51   1.36072386136
3.52   1.3605493947
3.53   1.36037438725
3.54   1.36019883845
3.55   1.36002274772
3.56   1.35984611451
3.57   1.35966893826
3.58   1.35949121839
3.59   1.35931295435
3.60   1.35913414556
3.61   1.35895479146
3.62   1.35877489149
3.63   1.35859444507
3.64   1.35841345163
3.65   1.3582319106
3.66   1.35804982141
3.67   1.35786718349
3.68   1.35768399626
3.69   1.35750025914
3.70   1.35731597157
3.71   1.35713113297
3.72   1.35694574275
3.73   1.35675980033
3.74   1.35657330515
3.75   1.35638625661
3.76   1.35619865413
3.77   1.35601049713
3.78   1.35582178503
3.79   1.35563251723
3.80   1.35544269316
3.81   1.35525231221
3.82   1.35506137381
3.83   1.35486987736
3.84   1.35467782227
3.85   1.35448520795
3.86   1.35429203379
3.87   1.35409829921
3.88   1.3539040036
3.89   1.35370914638
3.90   1.35351372693
3.91   1.35331774465
3.92   1.35312119895
3.93   1.35292408921
3.94   1.35272641484
3.95   1.35252817522
3.96   1.35232936975
3.97   1.35212999781
3.98   1.3519300588
3.99   1.3517295521
4.00   1.35152847709
4.01   1.35132683316
4.02   1.3511246197
4.03   1.35092183608
4.04   1.35071848168
4.05   1.35051455587
4.06   1.35031005805
4.07   1.35010498757
4.08   1.34989934382
4.09   1.34969312616
4.10   1.34948633396
4.11   1.34927896659
4.12   1.34907102342
4.13   1.34886250382
4.14   1.34865340713
4.15   1.34844373274
4.16   1.34823347999
4.17   1.34802264824
4.18   1.34781123685
4.19   1.34759924518
4.20   1.34738667257
4.21   1.34717351838
4.22   1.34695978196
4.23   1.34674546265
4.24   1.3465305598
4.25   1.34631507276
4.26   1.34609900086
4.27   1.34588234344
4.28   1.34566509985
4.29   1.34544726942
4.30   1.34522885148
4.31   1.34500984537
4.32   1.34479025042
4.33   1.34457006595
4.34   1.3443492913
4.35   1.34412792579
4.36   1.34390596874
4.37   1.34368341948
4.38   1.34346027731
4.39   1.34323654157
4.40   1.34301221156
4.41   1.34278728661
4.42   1.34256176601
4.43   1.34233564908
4.44   1.34210893514
4.45   1.34188162347
4.46   1.34165371339
4.47   1.3414252042
4.48   1.3411960952
4.49   1.34096638568
4.50   1.34073607494
4.51   1.34050516228
4.52   1.34027364698
4.53   1.34004152833
4.54   1.33980880563
4.55   1.33957547815
4.56   1.33934154517
4.57   1.33910700599
4.58   1.33887185987
4.59   1.33863610609
4.60   1.33839974394
4.61   1.33816277267
4.62   1.33792519156
4.63   1.33768699987
4.64   1.33744819688
4.65   1.33720878184
4.66   1.33696875402
4.67   1.33672811268
4.68   1.33648685706
4.69   1.33624498643
4.70   1.33600250004
4.71   1.33575939713
4.72   1.33551567696
4.73   1.33527133876
4.74   1.33502638179
4.75   1.33478080528
4.76   1.33453460847
4.77   1.3342877906
4.78   1.33404035089
4.79   1.33379228859
4.80   1.33354360292
4.81   1.33329429311
4.82   1.33304435837
4.83   1.33279379794
4.84   1.33254261103
4.85   1.33229079685
4.86   1.33203835463
4.87   1.33178528357
4.88   1.33153158289
4.89   1.33127725179
4.90   1.33102228947
4.91   1.33076669515
4.92   1.33051046801
4.93   1.33025360725
4.94   1.32999611208
4.95   1.32973798168
4.96   1.32947921524
4.97   1.32921981194
4.98   1.32895977099
4.99   1.32869909154
5.00   1.3284377728
5.01   1.32817581392
5.02   1.3279132141
5.03   1.32764997249
5.04   1.32738608827
5.05   1.3271215606
5.06   1.32685638865
5.07   1.32659057158
5.08   1.32632410855
5.09   1.32605699872
5.10   1.32578924123
5.11   1.32552083525
5.12   1.32525177991
5.13   1.32498207436
5.14   1.32471171775
5.15   1.32444070921
5.16   1.32416904788
5.17   1.32389673291
5.18   1.32362376341
5.19   1.32335013852
5.20   1.32307585736
5.21   1.32280091906
5.22   1.32252532274
5.23   1.32224906752
5.24   1.32197215251
5.25   1.32169457682
5.26   1.32141633957
5.27   1.32113743986
5.28   1.32085787679
5.29   1.32057764947
5.30   1.32029675699
5.31   1.32001519845
5.32   1.31973297294
5.33   1.31945007955
5.34   1.31916651737
5.35   1.31888228548
5.36   1.31859738296
5.37   1.31831180889
5.38   1.31802556234
5.39   1.31773864239
5.40   1.31745104811
5.41   1.31716277855
5.42   1.31687383279
5.43   1.31658420988
5.44   1.31629390889
5.45   1.31600292886
5.46   1.31571126884
5.47   1.31541892788
5.48   1.31512590504
5.49   1.31483219934
5.50   1.31453780983
5.51   1.31424273554
5.52   1.31394697551
5.53   1.31365052876
5.54   1.31335339433
5.55   1.31305557123
5.56   1.31275705848
5.57   1.3124578551
5.58   1.3121579601
5.59   1.3118573725
5.60   1.31155609129