SMz                                1       body  5 random          0  0.0          7169.041556  0.0  0.0  0.0  0.0  1.0                  0.0                  0.0  
TMy                                2       body  4 random          1  0.0               -0.186  0.0  0.0  0.0  0.0  1.0                  0.0                  0.0  
TMz                                2       body  5 random          2  0.0         -796.2719229  0.0  0.0  0.0  0.0  1.0                  0.0                  0.0  
FSMy                               3       body  4 random          3  0.0            -2.356548  0.0  0.0  0.0  0.0  1.0                  0.0                  0.0  
FSMz                               3       body  5 random          4  0.0            1047.8479  0.0  0.0  0.0  0.0  1.0                  0.0                  0.0  
POMx                               4       body  3 random          5  0.0           -54.763138  0.0  0.0  0.0  0.0  1.0                  0.0                  0.0  
POMy                               4       body  4 random          6  0.0         -306.8260525  0.0  0.0  0.0  0.0  1.0                  0.0                  0.0  
POMz                               4       body  5 random          7  0.0          -1889.00247  0.0  0.0  0.0  0.0  1.0                  0.0                  0.0  
POMphi                             4       body  0 random          8  0.0                  1.0  0.0  0.0  0.0  0.0  0.0        0.16477716547                  0.0  
POMtheta                           4       body  2 random          9  0.0        5.98158192792  0.0  0.0  0.0  0.0  1.0                  0.0                  0.0  
POMpsi                             4       body  1 random         10  0.0        6.12085209375  0.0  0.0  0.0  0.0  1.0                  0.0                  0.0  
COM1x                              5       body  3 random         11  0.0         -60.44363216  0.0  0.0  0.0  0.0  1.0                  0.0                  0.0  
COM1y                              5       body  4 random         12  0.0         -278.5587445  0.0  0.0  0.0  0.0  1.0                  0.0                  0.0  
COM1z                              5       body  5 random         13  0.0         -1836.947849  0.0  0.0  0.0  0.0  1.0                  0.0                  0.0  
COM1phi                            5       body  0 random         14  0.0                  1.0  0.0  0.0  0.0  0.0  0.0       0.232653289929                  0.0  
COM1theta                          5       body  2 random         15  0.0        5.81099613362  0.0  0.0  0.0  0.0  1.0                  0.0                  0.0  
COM2x                              6       body  3 random         16  0.0         -60.60510071  0.0  0.0  0.0  0.0  1.0                  0.0                  0.0  
COM2y                              6       body  4 random         17  0.0         -277.7323020  0.0  0.0  0.0  0.0  1.0                  0.0                  0.0  
COM2z                              6       body  5 random         18  0.0         -1835.447814  0.0  0.0  0.0  0.0  1.0                  0.0                  0.0  
COM2phi                            6       body  0 random         19  0.0                  1.0  0.0  0.0  0.0  0.0  0.0       0.250289891876                  0.0  
COM2theta                          6       body  2 random         20  0.0        5.84387276753  0.0  0.0  0.0  0.0  1.0                  0.0                  0.0  
FFFx                               7       body  3 random         21  0.0         -112.4997852  0.0  0.0  0.0  0.0  1.0                  0.0                  0.0  
FFFy                               7       body  4 random         22  0.0         -68.06801796  0.0  0.0  0.0  0.0  1.0                  0.0                  0.0  
FFFz                               7       body  5 random         23  0.0         -1445.119442  0.0  0.0  0.0  0.0  1.0                  0.0                  0.0  
FFFphi                             7       body  0 random         24  0.0                  1.0  0.0  0.0  0.0  0.0  0.0        1.84950606131                  0.0  
FFFtheta                           7       body  2 random         25  0.0        6.21522201243  0.0  0.0  0.0  0.0  1.0                  0.0                  0.0  
col11x                             8       body  3 random         26  0.0         -112.4997609  0.0  0.0  0.0  0.0  1.0                  0.0                  0.0  
col11y                             8       body  4 random         27  0.0         -15.39201908  0.0  0.0  0.0  0.0  1.0                  0.0                  0.0  
col11z                             8       body  5 random         28  0.0         -1535.583489  0.0  0.0  0.0  0.0  1.0                  0.0                  0.0  
col12x                             9       body  3 random         29  0.0         -112.4997342  0.0  0.0  0.0  0.0  1.0                  0.0                  0.0  
col12y                             9       body  4 random         30  0.0         -8.951113961  0.0  0.0  0.0  0.0  1.0                  0.0                  0.0  
col12z                             9       body  5 random         31  0.0         -1546.644896  0.0  0.0  0.0  0.0  1.0                  0.0                  0.0  
col21x                            10       body  3 random         32  0.0           -112.49973  0.0  0.0  0.0  0.0  1.0                  0.0                  0.0  
col21y                            10       body  4 random         33  0.0         -7.944722537  0.0  0.0  0.0  0.0  1.0                  0.0                  0.0  
col21z                            10       body  5 random         34  0.0         -1548.373241  0.0  0.0  0.0  0.0  1.0                  0.0                  0.0  
col22x                            11       body  3 random         35  0.0         -112.4996935  0.0  0.0  0.0  0.0  1.0                  0.0                  0.0  
col22y                            11       body  4 random         36  0.0          0.861202427  0.0  0.0  0.0  0.0  1.0                  0.0                  0.0  
col22z                            11       body  5 random         37  0.0          -1563.49626  0.0  0.0  0.0  0.0  1.0                  0.0                  0.0  
col31x                            12       body  3 random         38  0.0         -112.4996852  0.0  0.0  0.0  0.0  1.0                  0.0                  0.0  
col31y                            12       body  4 random         39  0.0          2.873985276  0.0  0.0  0.0  0.0  1.0                  0.0                  0.0  
col31z                            12       body  5 random         40  0.0          -1566.95295  0.0  0.0  0.0  0.0  1.0                  0.0                  0.0  
col32x                            13       body  3 random         41  0.0          -112.499662  0.0  0.0  0.0  0.0  1.0                  0.0                  0.0  
col32y                            13       body  4 random         42  0.0          8.459457682  0.0  0.0  0.0  0.0  1.0                  0.0                  0.0  
col32z                            13       body  5 random         43  0.0         -1576.545264  0.0  0.0  0.0  0.0  1.0                  0.0                  0.0  
colphi               8|9|10|11|12|13       body  0 random         44  0.0                  1.0  0.0  0.0  0.0  0.0  0.0        3.14158850968                  0.0  
coltheta             8|9|10|11|12|13       body  2 random         45  0.0        5.75589249333  0.0  0.0  0.0  0.0  1.0                  0.0                  0.0  
DBSx                              14       body  3 random         46  0.0         -112.4993949  0.0  0.0  0.0  0.0  1.0                  0.0                  0.0  
DBSy                              14       body  4 random         47  0.0          72.91882842  0.0  0.0  0.0  0.0  1.0                  0.0                  0.0  
DBSz                              14       body  5 random         48  0.0         -1687.245759  0.0  0.0  0.0  0.0  1.0                  0.0                  0.0  
DBSphi                            14       body  0 random         49  0.0                  1.0  0.0  0.0  0.0  0.0  0.0    8.05395133621e-05                  0.0  
DBStheta                          14       body  2 random         50  0.0        6.19913753355  0.0  0.0  0.0  0.0  1.0                  0.0                  0.0  
SWP1x                             15       body  3 random         51  0.0         -112.5008108  0.0  0.0  0.0  0.0  1.0                  0.0                  0.0  
SWP1y                             15       body  4 random         52  0.0          140.8320901  0.0  0.0  0.0  0.0  1.0                  0.0                  0.0  
SWP1z                             15       body  5 random         53  0.0         -1605.857587  0.0  0.0  0.0  0.0  1.0                  0.0                  0.0  
SWP2x                             16       body  3 random         54  0.0         -112.5010553  0.0  0.0  0.0  0.0  1.0                  0.0                  0.0  
SWP2y                             16       body  4 random         55  0.0          144.0349029  0.0  0.0  0.0  0.0  1.0                  0.0                  0.0  
SWP2z                             16       body  5 random         56  0.0         -1602.018058  0.0  0.0  0.0  0.0  1.0                  0.0                  0.0  
SWP2phi                        15|16       body  0 random         57  0.0                  1.0  0.0  0.0  0.0  0.0  0.0    7.63488254694e-05                  0.0  
SWP2theta                      15|16       body  2 random         58  0.0        5.58795465925  0.0  0.0  0.0  0.0  1.0                  0.0                  0.0  
SWF1x                             17       body  3 random         59  0.0          -112.501716  0.0  0.0  0.0  0.0  1.0                  0.0                  0.0  
SWF1y                             17       body  4 random         60  0.0          152.6889032  0.0  0.0  0.0  0.0  1.0                  0.0                  0.0  
SWF1z                             17       body  5 random         61  0.0         -1591.643648  0.0  0.0  0.0  0.0  1.0                  0.0                  0.0  
SWF2x                             18       body  3 random         62  0.0         -112.1533363  0.0  0.0  0.0  0.0  1.0                  0.0                  0.0  
SWF2y                             18       body  4 random         63  0.0          155.8920048  0.0  0.0  0.0  0.0  1.0                  0.0                  0.0  
SWF2z                             18       body  5 random         64  0.0         -1587.820198  0.0  0.0  0.0  0.0  1.0                  0.0                  0.0  
SWFphi                         17|18       body  0 random         65  0.0                  1.0  0.0  0.0  0.0  0.0  0.0        6.17484792051                  0.0  
SWFtheta                       17|18       body  2 random         66  0.0        5.58294919421  0.0  0.0  0.0  0.0  1.0                  0.0                  0.0  
SW11x                             19       body  3 random         67  0.0         -112.3993282  0.0  0.0  0.0  0.0  1.0                  0.0                  0.0  
SW11y                             19       body  4 random         68  0.0          192.0069524  0.0  0.0  0.0  0.0  1.0                  0.0                  0.0  
SW11z                             19       body  5 random         69  0.0         -1544.533083  0.0  0.0  0.0  0.0  1.0                  0.0                  0.0  
SW12x                             20       body  3 random         70  0.0         -112.3997195  0.0  0.0  0.0  0.0  1.0                  0.0                  0.0  
SW12y                             20       body  4 random         71  0.0          197.1314529  0.0  0.0  0.0  0.0  1.0                  0.0                  0.0  
SW12z                             20       body  5 random         72  0.0         -1538.389835  0.0  0.0  0.0  0.0  1.0                  0.0                  0.0  
SW21x                             21       body  3 random         73  0.0         -112.4019717  0.0  0.0  0.0  0.0  1.0                  0.0                  0.0  
SW21y                             21       body  4 random         74  0.0          226.6306891  0.0  0.0  0.0  0.0  1.0                  0.0                  0.0  
SW21z                             21       body  5 random         75  0.0          -1503.02617  0.0  0.0  0.0  0.0  1.0                  0.0                  0.0  
SW22x                             22       body  3 random         76  0.0         -112.4029449  0.0  0.0  0.0  0.0  1.0                  0.0                  0.0  
SW22y                             22       body  4 random         77  0.0          239.3778843  0.0  0.0  0.0  0.0  1.0                  0.0                  0.0  
SW22z                             22       body  5 random         78  0.0         -1487.744841  0.0  0.0  0.0  0.0  1.0                  0.0                  0.0  
SW31x                             23       body  3 random         79  0.0         -112.4032403  0.0  0.0  0.0  0.0  1.0                  0.0                  0.0  
SW31y                             23       body  4 random         80  0.0          243.2460507  0.0  0.0  0.0  0.0  1.0                  0.0                  0.0  
SW31z                             23       body  5 random         81  0.0         -1483.107686  0.0  0.0  0.0  0.0  1.0                  0.0                  0.0  
SW32x                             24       body  3 random         82  0.0         -112.4038271  0.0  0.0  0.0  0.0  1.0                  0.0                  0.0  
SW32y                             24       body  4 random         83  0.0          250.9328016  0.0  0.0  0.0  0.0  1.0                  0.0                  0.0  
SW32z                             24       body  5 random         84  0.0         -1473.892814  0.0  0.0  0.0  0.0  1.0                  0.0                  0.0  
SWphi              19|20|21|22|23|24       body  0 random         85  0.0                  1.0  0.0  0.0  0.0  0.0  0.0    7.63488254694e-05                  0.0  
SWtheta            19|20|21|22|23|24       body  2 random         86  0.0        5.58795465925  0.0  0.0  0.0  0.0  1.0                  0.0                  0.0  
SFFx                              25       body  3 random         87  0.0         -112.4088339  0.0  0.0  0.0  0.0  1.0                  0.0                  0.0  
SFFy                              25       body  4 random         88  0.0          316.5102378  0.0  0.0  0.0  0.0  1.0                  0.0                  0.0  
SFFz                              25       body  5 random         89  0.0         -1395.278628  0.0  0.0  0.0  0.0  1.0                  0.0                  0.0  
SFFphi                            25       body  0 random         90  0.0                  1.0  0.0  0.0  0.0  0.0  0.0    7.79148113408e-05                  0.0  
SFFtheta                          25       body  2 random         91  0.0        6.06986291776  0.0  0.0  0.0  0.0  1.0                  0.0                  0.0  
SWFPMx                            26       body  3 random         92  0.0          -112.417206  0.0  0.0  0.0  0.0  1.0                  0.0                  0.0  
SWFPMy                            26       body  4 random         93  0.0          437.3926173  0.0  0.0  0.0  0.0  1.0                  0.0                  0.0  
SWFPMz                            26       body  5 random         94  0.0         -1834.473555  0.0  0.0  0.0  0.0  1.0                  0.0                  0.0  
SWFPMphi                          26       body  0 random         95  0.0                  1.0  0.0  0.0  0.0  0.0  0.0        1.83028704458                  0.0  
SWFPMtheta                        26       body  2 random         96  0.0        5.46249559392  0.0  0.0  0.0  0.0  1.0                  0.0                  0.0  
SWFPAx                            27       body  3 random         97  0.0         -237.87350562  0.0  0.0  0.0  0.0  1.0                  0.0                  0.0  
SWFPAy                            27       body  4 random         98  0.0          437.64616841  0.0  0.0  0.0  0.0  1.0                  0.0                  0.0  
SWFPAz                            27       body  5 random         99  0.0         -1834.39461664  0.0  0.0  0.0  0.0  1.0                  0.0                  0.0  
SWFPAphi                          27       body  0 random        100  0.0                  1.0  0.0  0.0  0.0  0.0  0.0        1.53840832903                  0.0  
SWFPApsi                          27       body  1 random        101  0.0                  1.0  0.0  0.0  0.0  0.0  0.0         4.4739624637                  0.0  
SWFPAtheta                        27       body  2 random        102  0.0          4.710597624  0.0  0.0  0.0  0.0  1.0                  0.0                  0.0
M1Sh                              0        shape 160 physics     0.05 1 0 25 0.05 5e-8 200 500
