optics F300M	2.20  5.60  4.05  1.02979737783e6 1 1 0
primary  	mirror	15879.72199999988776  	0.0	3250.0	  	650.0	-0.9966605  0.0 0.0  0.0  0.0  0.0  0.0  0.0  0.0  0.0 0.0 0.0 0.0 0.0 0.0 0.0 none vacuum m1.txt
secondary  	mirror	1778.912670000002707	0.0	790.2   	0.0	-1.65981    0.0 0.0  0.0  0.0  0.0  0.0  0.0  0.0  0.0 0.0 0.0 0.0 0.0 0.0 0.0 none vacuum none
tertiarySq  	mirror	3016.226999999546513  	0.0	351      	0.0	-0.6595364  0.0 0.0  0.0  0.0  0.0  0.0  0.0  0.0  0.0 0.0 0.0 0.0 0.0 0.0 0.0 none vacuum none
FSM      	mirror	0.0  			0.0	86.25  		0.0	0.0         0.0  0.0  0.0 0.0  0.0  0.0  0.0  0.0  0.0 0.0 0.0 0.0 0.0 0.0 0.0 none vacuum none
POMSq      	mirror	1554.999999999896665 	0.0	63.15    	0.0	0.0         0.0 0.0  0.0  0.0  0.0  0.0  0.0  0.0  0.0 0.0 0.0 0.0 0.0 0.0 0.0 none vacuum none
FFF  		mirror 	475281.9971999999522	0.0	46.81130624213 	0.0	0.0         0.0 0.0  0.0  0.0  0.0  0.0  0.0  0.0  0.0 0.0 0.0 0.0 0.0 0.0 0.0 none vacuum none
col11		lens	122.9010899999999949	0.0	43.5	 	0.0	0.0         0.0 0.0  0.0  0.0  0.0  0.0  0.0  0.0  0.0 0.0 0.0 0.0 0.0 0.0 0.0 none ZnSe_37K.txt none
col12		lens	136.6041800000000103	0.0	43.35479374842	0.0	0.0         0.0 0.0  0.0  0.0  0.0  0.0  0.0  0.0  0.0 0.0 0.0 0.0 0.0 0.0 0.0 none vacuum none
col21		lens	-184.2484099999999985	0.0	43.3086027514	0.0	0.0         0.0 0.0  0.0  0.0  0.0  0.0  0.0  0.0  0.0 0.0 0.0 0.0 0.0 0.0 0.0 none BaF2_37K.txt none
col22		lens	0.0			0.0	42.3444940007	0.0	0.0         0.0  0.0  0.0 0.0  0.0  0.0  0.0  0.0  0.0 0.0 0.0 0.0 0.0 0.0 0.0 none vacuum none
col31		lens	0.0			0.0	41.89314247646	0.0	0.0         0.0  0.0  0.0 0.0  0.0  0.0  0.0  0.0  0.0 0.0 0.0 0.0 0.0 0.0 0.0 none LiF2_37K.txt none
col32		lens	-1096.182019999999991	0.0	40.88842822985	0.0	0.0         0.0 0.0  0.0  0.0  0.0  0.0  0.0  0.0  0.0 0.0 0.0 0.0 0.0 0.0 0.0 none vacuum none
DBS1		lens	0.0			0.0	31.79786904571	0.0	0.0         0.0  0.0  0.0 0.0  0.0  0.0  0.0  0.0  0.0 0.0 0.0 0.0 0.0 0.0 0.0 none Si_30K.txt none
DBS2		lens	0.0			0.0	32.15700401958	0.0	0.0         0.0  0.0  0.0 0.0  0.0  0.0  0.0  0.0  0.0 0.0 0.0 0.0 0.0 0.0 0.0 none vacuum none
LWP1		lens	0.0			0.0	17.97842394889 	0.0	0.0         0.0  0.0  0.0 0.0  0.0  0.0  0.0  0.0  0.0 0.0 0.0 0.0 0.0 0.0 0.0 none vacuum none
LWP2		lens	0.0			0.0	17.49913283627	0.0	0.0         0.0  0.0  0.0 0.0  0.0  0.0  0.0  0.0  0.0 0.0 0.0 0.0 0.0 0.0 0.0 none vacuum none
LWF1		filter	0.0			0.0	17.83715226261  0.0	0.0         0.0  0.0  0.0 0.0  0.0  0.0  0.0  0.0  0.0 0.0 0.0 0.0 0.0 0.0 0.0 throughput/F300M_B.txt Si_30K.txt none
LWF2		filter	0.0			0.0	18.02019641833	0.0	0.0         0.0  0.0  0.0 0.0  0.0  0.0  0.0  0.0  0.0 0.0 0.0 0.0 0.0 0.0 0.0 none vacuum none
LW11		lens	42.27479999999999990	0.0	24.0 		0.0	0.0         0.0 0.0  0.0  0.0  0.0  0.0  0.0  0.0  0.0 0.0 0.0 0.0 0.0 0.0 0.0 none LiF2_37K.txt none
LW12		lens	57.02590000000000023 	0.0	23.24667628549 	0.0	0.0         0.0 0.0  0.0  0.0  0.0  0.0  0.0  0.0  0.0 0.0 0.0 0.0 0.0 0.0 0.0 none vacuum none
LW21		lens	454.6290200000000561	0.0	24.65014075324	0.0	0.0         0.0 0.0  0.0  0.0  0.0  0.0  0.0  0.0  0.0 0.0 0.0 0.0 0.0 0.0 0.0 none BaF2_37K.txt none
LW22		lens	59.90059000000000634	0.0	26.06114241729	0.0	0.0         0.0 0.0  0.0  0.0  0.0  0.0  0.0  0.0  0.0 0.0 0.0 0.0 0.0 0.0 0.0 none vacuum none
LW31       	lens  	57.08559999999999757  	0.0 	25.85334537745	0.0    	0.0 0.0         0.0  0.0  0.0  0.0  0.0  0.0  0.0  0.0 0.0 0.0 0.0 0.0 0.0 0.0 none ZnSe_37K.txt none
LW32		lens	66.39339999999999967	0.0	28.43158531549 	0.0	-.017627939 0.0 0.0 1.004637e-11 0.0 3.813024e-15 0.0 -1.425781e-18 0.0 6.494986e-22 0.0 0.0 0.0 0.0 0.0 0.0 none vacuum none
LWFPMSq		mirror	0.0			0.0	37.3		0.0	0.0         0.0  0.0  0.0 0.0  0.0  0.0  0.0  0.0  0.0 0.0 0.0 0.0 0.0 0.0 0.0 none vacuum none
LWFPA		det	0.0			0.0	27.23884760803	0.0	0.0         0.0  0.0  0.0 0.0  0.0  0.0  0.0  0.0  0.0 0.0 0.0 0.0 0.0 0.0 0.0 none vacuum none
