M13dz           0|2                  body    5       actuator        0               -0.001 0.0 0.0 0.0 0.0 0.0 0.0 0.0 0.0
M13dx           0|2                  body    3       actuator        1               0.001 0.0 0.0 0.0 0.0 0.0 0.0 0.0 0.0
M13dy           0|2                  body    4       actuator        2               0.001 0.0 0.0 0.0 0.0 0.0 0.0 0.0 0.0
M13rx           0|2                  body    0       actuator        3              -4.84814e-06 0.0 0.0 0.0 0.0 0.0 0.0 0.0 0.0
M13rx           0|2                  body    1       actuator        3              -4.84814e-06 0.0 0.0 0.0 0.0 0.0 0.0 0.0 0.0
M13rx           0|2                  body    2       actuator        3              -4.84814e-06 0.0 0.0 0.0 0.0 0.0 0.0 0.0 0.0
M13ry           0|2                  body    0       actuator        4              -4.84814e-06 0.0 0.0 0.0 0.0 0.0 0.0 1.5708 0.0
M13ry           0|2                  body    1       actuator        4              -4.84814e-06 0.0 0.0 0.0 0.0 0.0 0.0 -1.5708 0.0
M13ry           0|2                  body    2       actuator        4              -4.84814e-06 0.0 0.0 0.0 0.0 0.0 0.0 0.0 0.0
M2dz            1                    body    5       actuator        5              -0.001 0.0 0.0 0.0 0.0 0.0 0.0 0.0 0.0
M2dx            1                    body    3       actuator        6               0.001 0.0 0.0 0.0 0.0 0.0 0.0 0.0 0.0
M2dy            1                    body    4       actuator        7               0.001 0.0 0.0 0.0 0.0 0.0 0.0 0.0 0.0
M2rx            1                    body    0       actuator        8              -4.84814e-06 0.0 0.0 0.0 0.0 0.0 0.0 0.0 0.0
M2rx            1                    body    1       actuator        8              -4.84814e-06 0.0 0.0 0.0 0.0 0.0 0.0 0.0 0.0
M2rx            1                    body    2       actuator        8              -4.84814e-06 0.0 0.0 0.0 0.0 0.0 0.0 0.0 0.0
M2ry            1                    body    0       actuator        9              -4.84814e-06 0.0 0.0 0.0 0.0 0.0 0.0 1.5708 0.0
M2ry            1                    body    1       actuator        9              -4.84814e-06 0.0 0.0 0.0 0.0 0.0 0.0 -1.5708 0.0
M2ry            1                    body    2       actuator        9              -4.84814e-06 0.0 0.0 0.0 0.0 0.0 0.0 0.0 0.0
CAMdz           3|4|5|6|7|8|9|10|11     body    5       actuator        10        -0.001 0.0 0.0 0.0 0.0 0.0 0.0 0.0 0.0
CAMdx           3|4|5|6|7|8|9|10|11     body    3       actuator        11        0.001 0.0 0.0 0.0 0.0 0.0 0.0 0.0 0.0
CAMdy           3|4|5|6|7|8|9|10|11     body    4       actuator        12        0.001 0.0 0.0 0.0 0.0 0.0 0.0 0.0 0.0
CAMrx           3                       body    0       actuator        13       -4.84814e-06 0.0 0.0 0.0 0.0 0.0 0.0 0.0 0.0
CAMrx           3                       body    1       actuator        13       -4.84814e-06 0.0 0.0 0.0 0.0 0.0 0.0 0.0 0.0
CAMrx           3                       body    2       actuator        13       -4.84814e-06 0.0 0.0 0.0 0.0 0.0 0.0 0.0 0.0
CAMrx           3                       body    4       actuator        13        0.0 0.0 -4.84814e-06 0.0 0.0 0.0 0.0 0.0 0.0
CAMrx           3                       body    5       actuator        13        0.0 0.0 -4.84814e-06 -0.0 0.0 0.0 0.0 0.0 0.0
CAMry           3                       body    0       actuator        14       -4.84814e-06 0.0 0.0 0.0 0.0 0.0 0.0 1.5708 0.0
CAMry           3                       body    1       actuator        14       -4.84814e-06 0.0 0.0 0.0 0.0 0.0 0.0 -1.5708 0.0
CAMry           3                       body    2       actuator        14       -4.84814e-06 0.0 0.0 0.0 0.0 0.0 0.0 0.0 0.0
CAMry           3                       body    3       actuator        14        0.0 0.0 -4.84814e-06 0.0 0.0 0.0 0.0 0.0 0.0
CAMry           3                       body    5       actuator        14        0.0 0.0 -4.84814e-06 -0.0 0.0 0.0 0.0 0.0 0.0
CAMrx           4                       body    0       actuator        13       -4.84814e-06 0.0 0.0 0.0 0.0 0.0 0.0 0.0 0.0
CAMrx           4                       body    1       actuator        13       -4.84814e-06 0.0 0.0 0.0 0.0 0.0 0.0 0.0 0.0
CAMrx           4                       body    2       actuator        13       -4.84814e-06 0.0 0.0 0.0 0.0 0.0 0.0 0.0 0.0
CAMrx           4                       body    4       actuator        13        0.0 0.0 -4.84814e-06 0.0 -82.23 0.0 0.0 0.0 0.0
CAMrx           4                       body    5       actuator        13        0.0 82.23 -4.84814e-06 -82.23 0.0 0.0 0.0 0.0 0.0
CAMry           4                       body    0       actuator        14       -4.84814e-06 0.0 0.0 0.0 0.0 0.0 0.0 1.5708 0.0
CAMry           4                       body    1       actuator        14       -4.84814e-06 0.0 0.0 0.0 0.0 0.0 0.0 -1.5708 0.0
CAMry           4                       body    2       actuator        14       -4.84814e-06 0.0 0.0 0.0 0.0 0.0 0.0 0.0 0.0
CAMry           4                       body    3       actuator        14        0.0 0.0 -4.84814e-06 0.0 82.23 0.0 0.0 0.0 0.0
CAMry           4                       body    5       actuator        14        0.0 82.23 -4.84814e-06 -82.23 0.0 0.0 0.0 0.0 0.0
CAMrx           5                       body    0       actuator        13       -4.84814e-06 0.0 0.0 0.0 0.0 0.0 0.0 0.0 0.0
CAMrx           5                       body    1       actuator        13       -4.84814e-06 0.0 0.0 0.0 0.0 0.0 0.0 0.0 0.0
CAMrx           5                       body    2       actuator        13       -4.84814e-06 0.0 0.0 0.0 0.0 0.0 0.0 0.0 0.0
CAMrx           5                       body    4       actuator        13        0.0 0.0 -4.84814e-06 0.0 -494.87203 0.0 0.0 0.0 0.0
CAMrx           5                       body    5       actuator        13        0.0 494.87203 -4.84814e-06 -494.87203 0.0 0.0 0.0 0.0 0.0
CAMry           5                       body    0       actuator        14       -4.84814e-06 0.0 0.0 0.0 0.0 0.0 0.0 1.5708 0.0
CAMry           5                       body    1       actuator        14       -4.84814e-06 0.0 0.0 0.0 0.0 0.0 0.0 -1.5708 0.0
CAMry           5                       body    2       actuator        14       -4.84814e-06 0.0 0.0 0.0 0.0 0.0 0.0 0.0 0.0
CAMry           5                       body    3       actuator        14        0.0 0.0 -4.84814e-06 0.0 494.87203 0.0 0.0 0.0 0.0
CAMry           5                       body    5       actuator        14        0.0 494.87203 -4.84814e-06 -494.87203 0.0 0.0 0.0 0.0 0.0
CAMrx           6                       body    0       actuator        13       -4.84814e-06 0.0 0.0 0.0 0.0 0.0 0.0 0.0 0.0
CAMrx           6                       body    1       actuator        13       -4.84814e-06 0.0 0.0 0.0 0.0 0.0 0.0 0.0 0.0
CAMrx           6                       body    2       actuator        13       -4.84814e-06 0.0 0.0 0.0 0.0 0.0 0.0 0.0 0.0
CAMrx           6                       body    4       actuator        13        0.0 0.0 -4.84814e-06 0.0 -524.87203 0.0 0.0 0.0 0.0
CAMrx           6                       body    5       actuator        13        0.0 524.87203 -4.84814e-06 -524.87203 0.0 0.0 0.0 0.0 0.0
CAMry           6                       body    0       actuator        14       -4.84814e-06 0.0 0.0 0.0 0.0 0.0 0.0 1.5708 0.0
CAMry           6                       body    1       actuator        14       -4.84814e-06 0.0 0.0 0.0 0.0 0.0 0.0 -1.5708 0.0
CAMry           6                       body    2       actuator        14       -4.84814e-06 0.0 0.0 0.0 0.0 0.0 0.0 0.0 0.0
CAMry           6                       body    3       actuator        14        0.0 0.0 -4.84814e-06 0.0 524.87203 0.0 0.0 0.0 0.0
CAMry           6                       body    5       actuator        14        0.0 524.87203 -4.84814e-06 -524.87203 0.0 0.0 0.0 0.0 0.0
CAMrx           7                       body    0       actuator        13       -4.84814e-06 0.0 0.0 0.0 0.0 0.0 0.0 0.0 0.0
CAMrx           7                       body    1       actuator        13       -4.84814e-06 0.0 0.0 0.0 0.0 0.0 0.0 0.0 0.0
CAMrx           7                       body    2       actuator        13       -4.84814e-06 0.0 0.0 0.0 0.0 0.0 0.0 0.0 0.0
CAMrx           7                       body    4       actuator        13        0.0 0.0 -4.84814e-06 0.0 -874.45202 0.0 0.0 0.0 0.0
CAMrx           7                       body    5       actuator        13        0.0 874.45202 -4.84814e-06 -874.45202 0.0 0.0 0.0 0.0 0.0
CAMry           7                       body    0       actuator        14       -4.84814e-06 0.0 0.0 0.0 0.0 0.0 0.0 1.5708 0.0
CAMry           7                       body    1       actuator        14       -4.84814e-06 0.0 0.0 0.0 0.0 0.0 0.0 -1.5708 0.0
CAMry           7                       body    2       actuator        14       -4.84814e-06 0.0 0.0 0.0 0.0 0.0 0.0 0.0 0.0
CAMry           7                       body    3       actuator        14        0.0 0.0 -4.84814e-06 0.0 874.45202 0.0 0.0 0.0 0.0
CAMry           7                       body    5       actuator        14        0.0 874.45202 -4.84814e-06 -874.45202 0.0 0.0 0.0 0.0 0.0
CAMrx           8                       body    0       actuator        13       -4.84814e-06 0.0 0.0 0.0 0.0 0.0 0.0 0.0 0.0
CAMrx           8                       body    1       actuator        13       -4.84814e-06 0.0 0.0 0.0 0.0 0.0 0.0 0.0 0.0
CAMrx           8                       body    2       actuator        13       -4.84814e-06 0.0 0.0 0.0 0.0 0.0 0.0 0.0 0.0
CAMrx           8                       body    4       actuator        13        0.0 0.0 -4.84814e-06 0.0 -895.95202 0.0 0.0 0.0 0.0
CAMrx           8                       body    5       actuator        13        0.0 895.95202 -4.84814e-06 -895.95202 0.0 0.0 0.0 0.0 0.0
CAMry           8                       body    0       actuator        14       -4.84814e-06 0.0 0.0 0.0 0.0 0.0 0.0 1.5708 0.0
CAMry           8                       body    1       actuator        14       -4.84814e-06 0.0 0.0 0.0 0.0 0.0 0.0 -1.5708 0.0
CAMry           8                       body    2       actuator        14       -4.84814e-06 0.0 0.0 0.0 0.0 0.0 0.0 0.0 0.0
CAMry           8                       body    3       actuator        14        0.0 0.0 -4.84814e-06 0.0 895.95202 0.0 0.0 0.0 0.0
CAMry           8                       body    5       actuator        14        0.0 895.95202 -4.84814e-06 -895.95202 0.0 0.0 0.0 0.0 0.0
CAMrx           9                       body    0       actuator        13       -4.84814e-06 0.0 0.0 0.0 0.0 0.0 0.0 0.0 0.0
CAMrx           9                       body    1       actuator        13       -4.84814e-06 0.0 0.0 0.0 0.0 0.0 0.0 0.0 0.0
CAMrx           9                       body    2       actuator        13       -4.84814e-06 0.0 0.0 0.0 0.0 0.0 0.0 0.0 0.0
CAMrx           9                       body    4       actuator        13        0.0 0.0 -4.84814e-06 0.0 -943.45202 0.0 0.0 0.0 0.0
CAMrx           9                       body    5       actuator        13        0.0 943.45202 -4.84814e-06 -943.45202 0.0 0.0 0.0 0.0 0.0
CAMry           9                       body    0       actuator        14       -4.84814e-06 0.0 0.0 0.0 0.0 0.0 0.0 1.5708 0.0
CAMry           9                       body    1       actuator        14       -4.84814e-06 0.0 0.0 0.0 0.0 0.0 0.0 -1.5708 0.0
CAMry           9                       body    2       actuator        14       -4.84814e-06 0.0 0.0 0.0 0.0 0.0 0.0 0.0 0.0
CAMry           9                       body    3       actuator        14        0.0 0.0 -4.84814e-06 0.0 943.45202 0.0 0.0 0.0 0.0
CAMry           9                       body    5       actuator        14        0.0 943.45202 -4.84814e-06 -943.45202 0.0 0.0 0.0 0.0 0.0
CAMrx           10                      body    0       actuator        13       -4.84814e-06 0.0 0.0 0.0 0.0 0.0 0.0 0.0 0.0
CAMrx           10                      body    1       actuator        13       -4.84814e-06 0.0 0.0 0.0 0.0 0.0 0.0 0.0 0.0
CAMrx           10                      body    2       actuator        13       -4.84814e-06 0.0 0.0 0.0 0.0 0.0 0.0 0.0 0.0
CAMrx           10                      body    4       actuator        13        0.0 0.0 -4.84814e-06 0.0 -1003.452 0.0 0.0 0.0 0.0
CAMrx           10                      body    5       actuator        13        0.0 1003.452 -4.84814e-06 -1003.452 0.0 0.0 0.0 0.0 0.0
CAMry           10                      body    0       actuator        14       -4.84814e-06 0.0 0.0 0.0 0.0 0.0 0.0 1.5708 0.0
CAMry           10                      body    1       actuator        14       -4.84814e-06 0.0 0.0 0.0 0.0 0.0 0.0 -1.5708 0.0
CAMry           10                      body    2       actuator        14       -4.84814e-06 0.0 0.0 0.0 0.0 0.0 0.0 0.0 0.0
CAMry           10                      body    3       actuator        14        0.0 0.0 -4.84814e-06 0.0 1003.452 0.0 0.0 0.0 0.0
CAMry           10                      body    5       actuator        14        0.0 1003.452 -4.84814e-06 -1003.452 0.0 0.0 0.0 0.0 0.0
CAMrx           11                      body    0       actuator        13       -4.84814e-06 0.0 0.0 0.0 0.0 0.0 0.0 0.0 0.0
CAMrx           11                      body    1       actuator        13       -4.84814e-06 0.0 0.0 0.0 0.0 0.0 0.0 0.0 0.0
CAMrx           11                      body    2       actuator        13       -4.84814e-06 0.0 0.0 0.0 0.0 0.0 0.0 0.0 0.0
CAMrx           11                      body    4       actuator        13        0.0 0.0 -4.84814e-06 0.0 -1031.952 0.0 0.0 0.0 0.0
CAMrx           11                      body    5       actuator        13        0.0 1031.952 -4.84814e-06 -1031.952 0.0 0.0 0.0 0.0 0.0
CAMry           11                      body    0       actuator        14       -4.84814e-06 0.0 0.0 0.0 0.0 0.0 0.0 1.5708 0.0
CAMry           11                      body    1       actuator        14       -4.84814e-06 0.0 0.0 0.0 0.0 0.0 0.0 -1.5708 0.0
CAMry           11                      body    2       actuator        14       -4.84814e-06 0.0 0.0 0.0 0.0 0.0 0.0 0.0 0.0
CAMry           11                      body    3       actuator        14        0.0 0.0 -4.84814e-06 0.0 1031.952 0.0 0.0 0.0 0.0
CAMry           11                      body    5       actuator        14        0.0 1031.952 -4.84814e-06 -1031.952 0.0 0.0 0.0 0.0 0.0
M1M3dzE 0|2                     body    5       random  0       1.0 0.0 0.0 0.0 0.0 0.0 0.009 0.0 0.0
M1M3dxE 0|2                     body    3       random  1       1.0 0.0 0.0 0.0 0.0 0.0 0.009 0.0 0.0
M1M3dyE 0|2                     body    4       random  2       1.0 0.0 0.0 0.0 0.0 0.0 0.009 0.0 0.0
M13rxE  0|2                     body    0       random  3       -4.84814e-06 0.0 0.0 0.0 0.0 0.0 0.6 0.0 0.0
M13rxE  0|2                     body    1       random  3       -4.84814e-06 0.0 0.0 0.0 0.0 0.0 0.6 0.0 0.0
M13rxE  0|2                     body    2       random  3       -4.84814e-06 0.0 0.0 0.0 0.0 0.0 0.6 0.0 0.0
M13ryE  0|2                     body    0       random  4       -4.84814e-06 0.0 0.0 0.0 0.0 0.0 0.6 1.5708 0.0
M13ryE  0|2                     body    1       random  4       -4.84814e-06 0.0 0.0 0.0 0.0 0.0 0.6 -1.5708 0.0
M13ryE  0|2                     body    2       random  4       -4.84814e-06 0.0 0.0 0.0 0.0 0.0 0.6 0.0 0.0
M2dzE   1                       body    5       random  5       1.0 0.0 0.0 0.0 0.0 0.0 0.006 0.0 0.0
M2dxE   1                       body    3       random  6       1.0 0.0 0.0 0.0 0.0 0.0 0.013 0.0 0.0
M2dyE   1                       body    4       random  7       1.0 0.0 0.0 0.0 0.0 0.0 0.013 0.0 0.0
M2rxE   1                       body    0       random  8       -4.84814e-06 0.0 0.0 0.0 0.0 0.0 0.0 0.0 0.0
M2rxE   1                       body    1       random  8       -4.84814e-06 0.0 0.0 0.0 0.0 0.0 0.0 0.0 0.0
M2rxE   1                       body    2       random  8       -4.84814e-06 0.0 0.0 0.0 0.0 0.0 0.0 0.0 0.0
M2ryE   1                       body    0       random  9       -4.84814e-06 0.0 0.0 0.0 0.0 0.0 0.0 1.5708 0.0
M2ryE   1                       body    1       random  9       -4.84814e-06 0.0 0.0 0.0 0.0 0.0 0.0 -1.5708 0.0
M2ryE   1                       body    2       random  9       -4.84814e-06 0.0 0.0 0.0 0.0 0.0 0.0 0.0 0.0
CAMdzE  3|4|5|6|7|8|9|10|11     body    5       random  10      0.0 0.0 0.0 0.0 0.0 0.0 0.005 0.0 0.0
CAMdxE  3|4|5|6|7|8|9|10|11     body    3       random  11      0.0 0.0 0.0 0.0 0.0 0.0 0.008 0.0 0.0
CAMdyE  3|4|5|6|7|8|9|10|11     body    4       random  12      0.0 0.0 0.0 0.0 0.0 0.0 0.008 0.0 0.0
CAMrx   3                       body    0       random  13       -4.84814e-06 0.0 0.0 0.0 0.0 0.0 1.8 0.0 0.0
CAMrx   3                       body    1       random  13       -4.84814e-06 0.0 0.0 0.0 0.0 0.0 1.8 0.0 0.0
CAMrx   3                       body    2       random  13       -4.84814e-06 0.0 0.0 0.0 0.0 0.0 1.8 0.0 0.0
CAMrx   3                       body    4       random  13       0.0 0.0 -4.84814e-06 0.0 0.0 0.0 1.8 0.0 0.0
CAMrx   3                       body    5       random  13       0.0 0.0 -4.84814e-06 -0.0 0.0 0.0 1.8 0.0 0.0
CAMry   3                       body    0       random  14       -4.84814e-06 0.0 0.0 0.0 0.0 0.0 1.8 1.5708 0.0
CAMry   3                       body    1       random  14       -4.84814e-06 0.0 0.0 0.0 0.0 0.0 1.8 -1.5708 0.0
CAMry   3                       body    2       random  14       -4.84814e-06 0.0 0.0 0.0 0.0 0.0 1.8 0.0 0.0
CAMry   3                       body    3       random  14       0.0 0.0 -4.84814e-06 0.0 0.0 0.0 1.8 0.0 0.0
CAMry   3                       body    5       random  14       0.0 0.0 -4.84814e-06 -0.0 0.0 0.0 1.8 0.0 0.0
CAMrx   4                       body    0       random  13       -4.84814e-06 0.0 0.0 0.0 0.0 0.0 1.8 0.0 0.0
CAMrx   4                       body    1       random  13       -4.84814e-06 0.0 0.0 0.0 0.0 0.0 1.8 0.0 0.0
CAMrx   4                       body    2       random  13       -4.84814e-06 0.0 0.0 0.0 0.0 0.0 1.8 0.0 0.0
CAMrx   4                       body    4       random  13       0.0 0.0 -4.84814e-06 0.0 -82.23 0.0 1.8 0.0 0.0
CAMrx   4                       body    5       random  13       0.0 82.23 -4.84814e-06 -82.23 0.0 0.0 1.8 0.0 0.0
CAMry   4                       body    0       random  14       -4.84814e-06 0.0 0.0 0.0 0.0 0.0 1.8 1.5708 0.0
CAMry   4                       body    1       random  14       -4.84814e-06 0.0 0.0 0.0 0.0 0.0 1.8 -1.5708 0.0
CAMry   4                       body    2       random  14       -4.84814e-06 0.0 0.0 0.0 0.0 0.0 1.8 0.0 0.0
CAMry   4                       body    3       random  14       0.0 0.0 -4.84814e-06 0.0 82.23 0.0 1.8 0.0 0.0
CAMry   4                       body    5       random  14       0.0 82.23 -4.84814e-06 -82.23 0.0 0.0 1.8 0.0 0.0
CAMrx   5                       body    0       random  13       -4.84814e-06 0.0 0.0 0.0 0.0 0.0 1.8 0.0 0.0
CAMrx   5                       body    1       random  13       -4.84814e-06 0.0 0.0 0.0 0.0 0.0 1.8 0.0 0.0
CAMrx   5                       body    2       random  13       -4.84814e-06 0.0 0.0 0.0 0.0 0.0 1.8 0.0 0.0
CAMrx   5                       body    4       random  13       0.0 0.0 -4.84814e-06 0.0 -494.87203 0.0 1.8 0.0 0.0
CAMrx   5                       body    5       random  13       0.0 494.87203 -4.84814e-06 -494.87203 0.0 0.0 1.8 0.0 0.0
CAMry   5                       body    0       random  14       -4.84814e-06 0.0 0.0 0.0 0.0 0.0 1.8 1.5708 0.0
CAMry   5                       body    1       random  14       -4.84814e-06 0.0 0.0 0.0 0.0 0.0 1.8 -1.5708 0.0
CAMry   5                       body    2       random  14       -4.84814e-06 0.0 0.0 0.0 0.0 0.0 1.8 0.0 0.0
CAMry   5                       body    3       random  14       0.0 0.0 -4.84814e-06 0.0 494.87203 0.0 1.8 0.0 0.0
CAMry   5                       body    5       random  14       0.0 494.87203 -4.84814e-06 -494.87203 0.0 0.0 1.8 0.0 0.0
CAMrx   6                       body    0       random  13       -4.84814e-06 0.0 0.0 0.0 0.0 0.0 1.8 0.0 0.0
CAMrx   6                       body    1       random  13       -4.84814e-06 0.0 0.0 0.0 0.0 0.0 1.8 0.0 0.0
CAMrx   6                       body    2       random  13       -4.84814e-06 0.0 0.0 0.0 0.0 0.0 1.8 0.0 0.0
CAMrx   6                       body    4       random  13       0.0 0.0 -4.84814e-06 0.0 -524.87203 0.0 1.8 0.0 0.0
CAMrx   6                       body    5       random  13       0.0 524.87203 -4.84814e-06 -524.87203 0.0 0.0 1.8 0.0 0.0
CAMry   6                       body    0       random  14       -4.84814e-06 0.0 0.0 0.0 0.0 0.0 1.8 1.5708 0.0
CAMry   6                       body    1       random  14       -4.84814e-06 0.0 0.0 0.0 0.0 0.0 1.8 -1.5708 0.0
CAMry   6                       body    2       random  14       -4.84814e-06 0.0 0.0 0.0 0.0 0.0 1.8 0.0 0.0
CAMry   6                       body    3       random  14       0.0 0.0 -4.84814e-06 0.0 524.87203 0.0 1.8 0.0 0.0
CAMry   6                       body    5       random  14       0.0 524.87203 -4.84814e-06 -524.87203 0.0 0.0 1.8 0.0 0.0
CAMrx   7                       body    0       random  13       -4.84814e-06 0.0 0.0 0.0 0.0 0.0 1.8 0.0 0.0
CAMrx   7                       body    1       random  13       -4.84814e-06 0.0 0.0 0.0 0.0 0.0 1.8 0.0 0.0
CAMrx   7                       body    2       random  13       -4.84814e-06 0.0 0.0 0.0 0.0 0.0 1.8 0.0 0.0
CAMrx   7                       body    4       random  13       0.0 0.0 -4.84814e-06 0.0 -874.45202 0.0 1.8 0.0 0.0
CAMrx   7                       body    5       random  13       0.0 874.45202 -4.84814e-06 -874.45202 0.0 0.0 1.8 0.0 0.0
CAMry   7                       body    0       random  14       -4.84814e-06 0.0 0.0 0.0 0.0 0.0 1.8 1.5708 0.0
CAMry   7                       body    1       random  14       -4.84814e-06 0.0 0.0 0.0 0.0 0.0 1.8 -1.5708 0.0
CAMry   7                       body    2       random  14       -4.84814e-06 0.0 0.0 0.0 0.0 0.0 1.8 0.0 0.0
CAMry   7                       body    3       random  14       0.0 0.0 -4.84814e-06 0.0 874.45202 0.0 1.8 0.0 0.0
CAMry   7                       body    5       random  14       0.0 874.45202 -4.84814e-06 -874.45202 0.0 0.0 1.8 0.0 0.0
CAMrx   8                       body    0       random  13       -4.84814e-06 0.0 0.0 0.0 0.0 0.0 1.8 0.0 0.0
CAMrx   8                       body    1       random  13       -4.84814e-06 0.0 0.0 0.0 0.0 0.0 1.8 0.0 0.0
CAMrx   8                       body    2       random  13       -4.84814e-06 0.0 0.0 0.0 0.0 0.0 1.8 0.0 0.0
CAMrx   8                       body    4       random  13       0.0 0.0 -4.84814e-06 0.0 -895.95202 0.0 1.8 0.0 0.0
CAMrx   8                       body    5       random  13       0.0 895.95202 -4.84814e-06 -895.95202 0.0 0.0 1.8 0.0 0.0
CAMry   8                       body    0       random  14       -4.84814e-06 0.0 0.0 0.0 0.0 0.0 1.8 1.5708 0.0
CAMry   8                       body    1       random  14       -4.84814e-06 0.0 0.0 0.0 0.0 0.0 1.8 -1.5708 0.0
CAMry   8                       body    2       random  14       -4.84814e-06 0.0 0.0 0.0 0.0 0.0 1.8 0.0 0.0
CAMry   8                       body    3       random  14       0.0 0.0 -4.84814e-06 0.0 895.95202 0.0 1.8 0.0 0.0
CAMry   8                       body    5       random  14       0.0 895.95202 -4.84814e-06 -895.95202 0.0 0.0 1.8 0.0 0.0
CAMrx   9                       body    0       random  13       -4.84814e-06 0.0 0.0 0.0 0.0 0.0 1.8 0.0 0.0
CAMrx   9                       body    1       random  13       -4.84814e-06 0.0 0.0 0.0 0.0 0.0 1.8 0.0 0.0
CAMrx   9                       body    2       random  13       -4.84814e-06 0.0 0.0 0.0 0.0 0.0 1.8 0.0 0.0
CAMrx   9                       body    4       random  13       0.0 0.0 -4.84814e-06 0.0 -943.45202 0.0 1.8 0.0 0.0
CAMrx   9                       body    5       random  13       0.0 943.45202 -4.84814e-06 -943.45202 0.0 0.0 1.8 0.0 0.0
CAMry   9                       body    0       random  14       -4.84814e-06 0.0 0.0 0.0 0.0 0.0 1.8 1.5708 0.0
CAMry   9                       body    1       random  14       -4.84814e-06 0.0 0.0 0.0 0.0 0.0 1.8 -1.5708 0.0
CAMry   9                       body    2       random  14       -4.84814e-06 0.0 0.0 0.0 0.0 0.0 1.8 0.0 0.0
CAMry   9                       body    3       random  14       0.0 0.0 -4.84814e-06 0.0 943.45202 0.0 1.8 0.0 0.0
CAMry   9                       body    5       random  14       0.0 943.45202 -4.84814e-06 -943.45202 0.0 0.0 1.8 0.0 0.0
CAMrx   10                      body    0       random  13       -4.84814e-06 0.0 0.0 0.0 0.0 0.0 1.8 0.0 0.0
CAMrx   10                      body    1       random  13       -4.84814e-06 0.0 0.0 0.0 0.0 0.0 1.8 0.0 0.0
CAMrx   10                      body    2       random  13       -4.84814e-06 0.0 0.0 0.0 0.0 0.0 1.8 0.0 0.0
CAMrx   10                      body    4       random  13       0.0 0.0 -4.84814e-06 0.0 -1003.452 0.0 1.8 0.0 0.0
CAMrx   10                      body    5       random  13       0.0 1003.452 -4.84814e-06 -1003.452 0.0 0.0 1.8 0.0 0.0
CAMry   10                      body    0       random  14       -4.84814e-06 0.0 0.0 0.0 0.0 0.0 1.8 1.5708 0.0
CAMry   10                      body    1       random  14       -4.84814e-06 0.0 0.0 0.0 0.0 0.0 1.8 -1.5708 0.0
CAMry   10                      body    2       random  14       -4.84814e-06 0.0 0.0 0.0 0.0 0.0 1.8 0.0 0.0
CAMry   10                      body    3       random  14       0.0 0.0 -4.84814e-06 0.0 1003.452 0.0 1.8 0.0 0.0
CAMry   10                      body    5       random  14       0.0 1003.452 -4.84814e-06 -1003.452 0.0 0.0 1.8 0.0 0.0
CAMrx   11                      body    0       random  13       -4.84814e-06 0.0 0.0 0.0 0.0 0.0 1.8 0.0 0.0
CAMrx   11                      body    1       random  13       -4.84814e-06 0.0 0.0 0.0 0.0 0.0 1.8 0.0 0.0
CAMrx   11                      body    2       random  13       -4.84814e-06 0.0 0.0 0.0 0.0 0.0 1.8 0.0 0.0
CAMrx   11                      body    4       random  13       0.0 0.0 -4.84814e-06 0.0 -1031.952 0.0 1.8 0.0 0.0
CAMrx   11                      body    5       random  13       0.0 1031.952 -4.84814e-06 -1031.952 0.0 0.0 1.8 0.0 0.0
CAMry   11                      body    0       random  14       -4.84814e-06 0.0 0.0 0.0 0.0 0.0 1.8 1.5708 0.0
CAMry   11                      body    1       random  14       -4.84814e-06 0.0 0.0 0.0 0.0 0.0 1.8 -1.5708 0.0
CAMry   11                      body    2       random  14       -4.84814e-06 0.0 0.0 0.0 0.0 0.0 1.8 0.0 0.0
CAMry   11                      body    3       random  14       0.0 0.0 -4.84814e-06 0.0 1031.952 0.0 1.8 0.0 0.0
CAMry   11                      body    5       random  14       0.0 1031.952 -4.84814e-06 -1031.952 0.0 0.0 1.8 0.0 0.0
M2Sh    1                       shape   128     physics 0.05 1 200 25 0.05 1e-8 200 500
M1M3Sh  0|2                     shape   64      physics 0.05 1 200 25 0.05 5e-8 100 300
