#
# @package phosim
# @brief phosim data file
#
# @brief Created by:
# @author John R. Peterson (Purdue)
#
# @brief Modified by:
#
#  @warning Please treat results using PhoSim with caution as this project is in active development.
#  @warning This material is copyrighted and subject to a open source license with restrictions.  See COPYING for details.
#
optics i    0.2    1.2 0.5   54717.8789 1 1 0
primary mirror    6400.0000      0.0000    400.0000     50.0000 -1 0 0 0 0 0 0 0 0 0 0 0 0 0 0 0 protected_al air none
filter  lens      -184.0000   2817.6001     50.0000      0.0000 -1 0 0 0 0 0 0 0 0 0 0 0 0 0 0 0 jc_i sio2 none
filter  lens      -180.3200      8.0000     50.0000      0.0000 -1 0 0 0 0 0 0 0 0 0 0 0 0 0 0 0 lens_ar air none
image   det          0.0000    374.4000     48.0000      0.0000  0 0 0 0 0 0 0 0 0 0 0 0 0 0 0 0 detector_ar air none
